(export (version D)
  (design
    (source /home/chris/checkout/schematics/appendage_power/appendage_power.sch)
    (date "Wed 05 Jan 2022 12:38:21 AM PST")
    (tool "Eeschema 5.1.5+dfsg1-2build2")
    (sheet (number 1) (name /) (tstamps /)
      (title_block
        (title)
        (company)
        (rev)
        (date)
        (source appendage_power.sch)
        (comment (number 1) (value ""))
        (comment (number 2) (value ""))
        (comment (number 3) (value ""))
        (comment (number 4) (value "")))))
  (components
    (comp (ref U2)
      (value AOZ2255LQI-31)
      (footprint hexapod:QFN-22)
      (libsource (lib spider_lib) (part AOZ2255LQI-31) (description ""))
      (sheetpath (names /) (tstamps /))
      (tstamp 6199FFEA))
    (comp (ref C3)
      (value 100pF)
      (footprint Capacitor_SMD:C_0402_1005Metric)
      (datasheet ~)
      (libsource (lib Device) (part C_Small) (description "Unpolarized capacitor, small symbol"))
      (sheetpath (names /) (tstamps /))
      (tstamp 619A36CA))
    (comp (ref R2)
      (value RTON)
      (footprint Resistor_SMD:R_0603_1608Metric)
      (datasheet ~)
      (libsource (lib Device) (part R_US) (description "Resistor, US symbol"))
      (sheetpath (names /) (tstamps /))
      (tstamp 619A5B2F))
    (comp (ref C1)
      (value 22uF)
      (footprint Capacitor_SMD:C_1206_3216Metric)
      (datasheet ~)
      (libsource (lib Device) (part C_Small) (description "Unpolarized capacitor, small symbol"))
      (sheetpath (names /) (tstamps /))
      (tstamp 619A8856))
    (comp (ref C6)
      (value 150uF)
      (footprint hexapod:TAJV157M025RNJ_capacitor)
      (datasheet ~)
      (libsource (lib Device) (part C_Small) (description "Unpolarized capacitor, small symbol"))
      (sheetpath (names /) (tstamps /))
      (tstamp 619AB75E))
    (comp (ref C2)
      (value 0.1uF)
      (footprint Capacitor_SMD:C_0402_1005Metric)
      (datasheet ~)
      (libsource (lib Device) (part C_Small) (description "Unpolarized capacitor, small symbol"))
      (sheetpath (names /) (tstamps /))
      (tstamp 619B6963))
    (comp (ref C4)
      (value Css)
      (footprint Capacitor_SMD:C_0402_1005Metric)
      (datasheet ~)
      (libsource (lib Device) (part C_Small) (description "Unpolarized capacitor, small symbol"))
      (sheetpath (names /) (tstamps /))
      (tstamp 61A21CA4))
    (comp (ref C5)
      (value 4.7uF)
      (footprint Capacitor_SMD:C_0805_2012Metric)
      (datasheet ~)
      (libsource (lib Device) (part C_Small) (description "Unpolarized capacitor, small symbol"))
      (sheetpath (names /) (tstamps /))
      (tstamp 61A8B678))
    (comp (ref R7)
      (value 2200000)
      (footprint Resistor_SMD:R_0603_1608Metric)
      (datasheet ~)
      (libsource (lib Device) (part R_US) (description "Resistor, US symbol"))
      (sheetpath (names /) (tstamps /))
      (tstamp 61B7BAB4))
    (comp (ref R8)
      (value 392000)
      (footprint Resistor_SMD:R_0603_1608Metric)
      (datasheet ~)
      (libsource (lib Device) (part R_US) (description "Resistor, US symbol"))
      (sheetpath (names /) (tstamps /))
      (tstamp 61B7D716))
    (comp (ref U3)
      (value ‎ACS726LLFTR-40B-T)
      (footprint Sensor_Current:Allegro_QFN-12-10-1EP_3x3mm_P0.5mm)
      (datasheet http://www.allegromicro.com/~/Media/Files/Datasheets/ACS711-Datasheet.ashx)
      (libsource (lib Sensor_Current) (part ACS711xEXLT-31AB) (description "±31A Bidirectional, Hall-Effect Current Sensor, +3.3V supply, 45mV/A, QFN-12"))
      (sheetpath (names /) (tstamps /))
      (tstamp 61BD4A1B))
    (comp (ref R3)
      (value 2200000)
      (footprint Resistor_SMD:R_0603_1608Metric)
      (datasheet ~)
      (libsource (lib Device) (part R_US) (description "Resistor, US symbol"))
      (sheetpath (names /) (tstamps /))
      (tstamp 61C3DC1C))
    (comp (ref R4)
      (value 392000)
      (footprint Resistor_SMD:R_0603_1608Metric)
      (datasheet ~)
      (libsource (lib Device) (part R_US) (description "Resistor, US symbol"))
      (sheetpath (names /) (tstamps /))
      (tstamp 61C3DC22))
    (comp (ref D2)
      (value POWER_LED)
      (footprint LED_SMD:LED_0603_1608Metric)
      (datasheet ~)
      (libsource (lib Device) (part LED) (description "Light emitting diode"))
      (sheetpath (names /) (tstamps /))
      (tstamp 61E578C7))
    (comp (ref R1)
      (value 10k)
      (footprint Resistor_SMD:R_0603_1608Metric)
      (datasheet ~)
      (libsource (lib Device) (part R_US) (description "Resistor, US symbol"))
      (sheetpath (names /) (tstamps /))
      (tstamp 61EA18FC))
    (comp (ref U1)
      (value ATMEGA809-MU)
      (footprint Package_DFN_QFN:VQFN-48-1EP_7x7mm_P0.5mm_EP4.1x4.1mm_ThermalVias)
      (libsource (lib gamerscomplete) (part ATMEGA809-MU) (description ""))
      (sheetpath (names /) (tstamps /))
      (tstamp 61ADC214))
    (comp (ref D3)
      (value CURRENT_SENSOR_FAULT)
      (footprint LED_SMD:LED_0603_1608Metric)
      (datasheet ~)
      (libsource (lib Device) (part LED) (description "Light emitting diode"))
      (sheetpath (names /) (tstamps /))
      (tstamp 61B6CD19))
    (comp (ref R9)
      (value R_US)
      (footprint Resistor_SMD:R_0603_1608Metric)
      (datasheet ~)
      (libsource (lib Device) (part R_US) (description "Resistor, US symbol"))
      (sheetpath (names /) (tstamps /))
      (tstamp 61B72462))
    (comp (ref D1)
      (value "Regulator Enabled LED")
      (footprint LED_SMD:LED_0603_1608Metric)
      (datasheet ~)
      (libsource (lib Device) (part LED) (description "Light emitting diode"))
      (sheetpath (names /) (tstamps /))
      (tstamp 61B85644))
    (comp (ref R5)
      (value R_US)
      (footprint Resistor_SMD:R_0603_1608Metric)
      (datasheet ~)
      (libsource (lib Device) (part R_US) (description "Resistor, US symbol"))
      (sheetpath (names /) (tstamps /))
      (tstamp 61B8CA77))
    (comp (ref R6)
      (value R_US)
      (footprint Resistor_SMD:R_0603_1608Metric)
      (datasheet ~)
      (libsource (lib Device) (part R_US) (description "Resistor, US symbol"))
      (sheetpath (names /) (tstamps /))
      (tstamp 61BAA09A))
    (comp (ref J1)
      (value "Programming header")
      (footprint Connector_PinSocket_2.54mm:PinSocket_2x03_P2.54mm_Vertical)
      (datasheet " ~")
      (libsource (lib Connector) (part AVR-ISP-6) (description "Atmel 6-pin ISP connector"))
      (sheetpath (names /) (tstamps /))
      (tstamp 61CBE057))
    (comp (ref J2)
      (value "Servo 1")
      (footprint Connector_Molex:Molex_SPOX_5267-03A_1x03_P2.50mm_Vertical)
      (datasheet ~)
      (libsource (lib Connector_Generic) (part Conn_01x03) (description "Generic connector, single row, 01x03, script generated (kicad-library-utils/schlib/autogen/connector/)"))
      (sheetpath (names /) (tstamps /))
      (tstamp 61DE0017))
    (comp (ref J4)
      (value "Servo 2")
      (footprint Connector_Molex:Molex_SPOX_5267-03A_1x03_P2.50mm_Vertical)
      (datasheet ~)
      (libsource (lib Connector_Generic) (part Conn_01x03) (description "Generic connector, single row, 01x03, script generated (kicad-library-utils/schlib/autogen/connector/)"))
      (sheetpath (names /) (tstamps /))
      (tstamp 61DF218E))
    (comp (ref J5)
      (value "Servo 3")
      (footprint Connector_Molex:Molex_SPOX_5267-03A_1x03_P2.50mm_Vertical)
      (datasheet ~)
      (libsource (lib Connector_Generic) (part Conn_01x03) (description "Generic connector, single row, 01x03, script generated (kicad-library-utils/schlib/autogen/connector/)"))
      (sheetpath (names /) (tstamps /))
      (tstamp 61DF5A25))
    (comp (ref J6)
      (value "Servo 4")
      (footprint Connector_Molex:Molex_SPOX_5267-03A_1x03_P2.50mm_Vertical)
      (datasheet ~)
      (libsource (lib Connector_Generic) (part Conn_01x03) (description "Generic connector, single row, 01x03, script generated (kicad-library-utils/schlib/autogen/connector/)"))
      (sheetpath (names /) (tstamps /))
      (tstamp 61DF95D7))
    (comp (ref J3)
      (value pcie-36)
      (footprint Connector_PCBEdge:BUS_PCIexpress_x1)
      (libsource (lib spider_lib) (part pcie-36) (description ""))
      (sheetpath (names /) (tstamps /))
      (tstamp 61E5D562))
    (comp (ref L1)
      (value 0.68uH)
      (footprint hexapod:BMRA00060630R68MA1_inductor)
      (datasheet ~)
      (libsource (lib pspice) (part INDUCTOR) (description "Inductor symbol for simulation only"))
      (sheetpath (names /) (tstamps /))
      (tstamp 619AD03E)))
  (libparts
    (libpart (lib Connector) (part AVR-ISP-6)
      (description "Atmel 6-pin ISP connector")
      (docs " ~")
      (footprints
        (fp IDC?Header*2x03*)
        (fp Pin?Header*2x03*))
      (fields
        (field (name Reference) J)
        (field (name Value) AVR-ISP-6))
      (pins
        (pin (num 1) (name MISO) (type passive))
        (pin (num 2) (name VCC) (type passive))
        (pin (num 3) (name SCK) (type passive))
        (pin (num 4) (name MOSI) (type passive))
        (pin (num 5) (name ~RST) (type passive))
        (pin (num 6) (name GND) (type passive))))
    (libpart (lib Connector_Generic) (part Conn_01x03)
      (description "Generic connector, single row, 01x03, script generated (kicad-library-utils/schlib/autogen/connector/)")
      (docs ~)
      (footprints
        (fp Connector*:*_1x??_*))
      (fields
        (field (name Reference) J)
        (field (name Value) Conn_01x03))
      (pins
        (pin (num 1) (name Pin_1) (type passive))
        (pin (num 2) (name Pin_2) (type passive))
        (pin (num 3) (name Pin_3) (type passive))))
    (libpart (lib Device) (part C_Small)
      (description "Unpolarized capacitor, small symbol")
      (docs ~)
      (footprints
        (fp C_*))
      (fields
        (field (name Reference) C)
        (field (name Value) C_Small))
      (pins
        (pin (num 1) (name ~) (type passive))
        (pin (num 2) (name ~) (type passive))))
    (libpart (lib Device) (part LED)
      (description "Light emitting diode")
      (docs ~)
      (footprints
        (fp LED*)
        (fp LED_SMD:*)
        (fp LED_THT:*))
      (fields
        (field (name Reference) D)
        (field (name Value) LED))
      (pins
        (pin (num 1) (name K) (type passive))
        (pin (num 2) (name A) (type passive))))
    (libpart (lib Device) (part R_US)
      (description "Resistor, US symbol")
      (docs ~)
      (footprints
        (fp R_*))
      (fields
        (field (name Reference) R)
        (field (name Value) R_US))
      (pins
        (pin (num 1) (name ~) (type passive))
        (pin (num 2) (name ~) (type passive))))
    (libpart (lib Sensor_Current) (part ACS711xEXLT-15AB)
      (aliases
        (alias ACS711xEXLT-31AB))
      (description "±15A Bidirectional Hall-Effect Current Sensor, +3.3V supply, 90mV/A, QFN-12")
      (docs http://www.allegromicro.com/~/Media/Files/Datasheets/ACS711-Datasheet.ashx)
      (footprints
        (fp Allegro*QFN*EP*3x3mm*P0.5mm*))
      (fields
        (field (name Reference) U)
        (field (name Value) ACS711xEXLT-15AB)
        (field (name Footprint) Sensor_Current:Allegro_QFN-12-10-1EP_3x3mm_P0.5mm))
      (pins
        (pin (num 1) (name IP+) (type passive))
        (pin (num 2) (name IP-) (type passive))
        (pin (num 3) (name GND) (type power_in))
        (pin (num 4) (name ~FAULT) (type output))
        (pin (num 5) (name NC) (type passive))
        (pin (num 6) (name NC) (type passive))
        (pin (num 7) (name NC) (type passive))
        (pin (num 8) (name NC) (type passive))
        (pin (num 9) (name VIOUT) (type output))
        (pin (num 10) (name VCC) (type power_in))))
    (libpart (lib gamerscomplete) (part ATMEGA809-MU)
      (fields
        (field (name Reference) U)
        (field (name Value) ATMEGA809-MU))
      (pins
        (pin (num 1) (name PA5) (type BiDi))
        (pin (num 2) (name PA6) (type BiDi))
        (pin (num 3) (name PA7) (type BiDi))
        (pin (num 4) (name PB0) (type BiDi))
        (pin (num 5) (name PB1) (type BiDi))
        (pin (num 6) (name PB2) (type BiDi))
        (pin (num 7) (name PB3) (type BiDi))
        (pin (num 8) (name PB4) (type BiDi))
        (pin (num 9) (name PB5) (type BiDi))
        (pin (num 10) (name PC0) (type BiDi))
        (pin (num 11) (name PC1) (type BiDi))
        (pin (num 12) (name PC2) (type BiDi))
        (pin (num 13) (name PC3) (type BiDi))
        (pin (num 14) (name VDD) (type power_in))
        (pin (num 15) (name GND) (type power_in))
        (pin (num 16) (name PC4) (type BiDi))
        (pin (num 17) (name PC5) (type BiDi))
        (pin (num 18) (name PC6) (type BiDi))
        (pin (num 19) (name PC7) (type BiDi))
        (pin (num 20) (name PD0) (type BiDi))
        (pin (num 21) (name PD1) (type BiDi))
        (pin (num 22) (name PD2) (type BiDi))
        (pin (num 23) (name PD3) (type BiDi))
        (pin (num 24) (name PD4) (type BiDi))
        (pin (num 25) (name PD5) (type BiDi))
        (pin (num 26) (name PD6) (type BiDi))
        (pin (num 27) (name PD7) (type BiDi))
        (pin (num 28) (name AVDD) (type power_in))
        (pin (num 29) (name GND) (type power_in))
        (pin (num 30) (name PE0) (type BiDi))
        (pin (num 31) (name PE1) (type BiDi))
        (pin (num 32) (name PE2) (type BiDi))
        (pin (num 33) (name PE3) (type BiDi))
        (pin (num 34) (name "PF0(TOSC1)") (type BiDi))
        (pin (num 35) (name "PF1(TOSC2)") (type BiDi))
        (pin (num 36) (name PF2) (type BiDi))
        (pin (num 37) (name PF3) (type BiDi))
        (pin (num 38) (name PF4) (type BiDi))
        (pin (num 39) (name PF5) (type BiDi))
        (pin (num 40) (name PF6) (type BiDi))
        (pin (num 41) (name UPDI) (type BiDi))
        (pin (num 42) (name VDD) (type power_in))
        (pin (num 43) (name GND) (type power_in))
        (pin (num 44) (name "PA0(EXTCLK)") (type BiDi))
        (pin (num 45) (name PA1) (type BiDi))
        (pin (num 46) (name PA2) (type BiDi))
        (pin (num 47) (name PA3) (type BiDi))
        (pin (num 48) (name PA4) (type BiDi))))
    (libpart (lib pspice) (part INDUCTOR)
      (description "Inductor symbol for simulation only")
      (docs ~)
      (fields
        (field (name Reference) L)
        (field (name Value) INDUCTOR))
      (pins
        (pin (num 1) (name 1) (type input))
        (pin (num 2) (name 2) (type input))))
    (libpart (lib spider_lib) (part AOZ2255LQI-31)
      (fields
        (field (name Reference) U)
        (field (name Value) AOZ2255LQI-31))
      (pins
        (pin (num 1) (name EN) (type input))
        (pin (num 2) (name FB) (type input))
        (pin (num 3) (name AGND) (type power_out))
        (pin (num 6) (name AIN) (type input))
        (pin (num 7) (name IN) (type power_in))
        (pin (num 8) (name IN) (type power_in))
        (pin (num 9) (name IN) (type power_in))
        (pin (num 10) (name LX) (type power_out))
        (pin (num 11) (name LX) (type power_out))
        (pin (num 12) (name PGND) (type power_in))
        (pin (num 13) (name PGND) (type power_out))
        (pin (num 14) (name PGND) (type output))
        (pin (num 15) (name PGND) (type output))
        (pin (num 16) (name LX) (type power_out))
        (pin (num 17) (name LX) (type power_out))
        (pin (num 18) (name LX) (type power_out))
        (pin (num 19) (name TON) (type input))
        (pin (num 20) (name BST) (type input))
        (pin (num 21) (name VCC) (type power_out))
        (pin (num 22) (name SS) (type input))
        (pin (num IN) (name IN) (type power_in))
        (pin (num LX) (name LX) (type power_out))))
    (libpart (lib spider_lib) (part pcie-36)
      (fields
        (field (name Reference) J)
        (field (name Value) pcie-36))
      (pins
        (pin (num A1) (name ~) (type input))
        (pin (num A2) (name ~) (type input))
        (pin (num A3) (name ~) (type input))
        (pin (num A4) (name ~) (type input))
        (pin (num A5) (name ~) (type input))
        (pin (num A6) (name ~) (type input))
        (pin (num A7) (name ~) (type input))
        (pin (num A8) (name ~) (type input))
        (pin (num A9) (name ~) (type input))
        (pin (num A10) (name ~) (type input))
        (pin (num A11) (name ~) (type input))
        (pin (num A12) (name ~) (type input))
        (pin (num A13) (name ~) (type input))
        (pin (num A14) (name ~) (type input))
        (pin (num A15) (name ~) (type input))
        (pin (num A16) (name ~) (type input))
        (pin (num A17) (name ~) (type input))
        (pin (num A18) (name ~) (type input))
        (pin (num B1) (name ~) (type input))
        (pin (num B2) (name ~) (type input))
        (pin (num B3) (name ~) (type input))
        (pin (num B4) (name ~) (type input))
        (pin (num B5) (name ~) (type input))
        (pin (num B6) (name ~) (type input))
        (pin (num B7) (name ~) (type input))
        (pin (num B8) (name ~) (type input))
        (pin (num B9) (name ~) (type input))
        (pin (num B10) (name ~) (type input))
        (pin (num B11) (name ~) (type input))
        (pin (num B12) (name ~) (type input))
        (pin (num B13) (name ~) (type input))
        (pin (num B14) (name ~) (type input))
        (pin (num B15) (name ~) (type input))
        (pin (num B16) (name ~) (type input))
        (pin (num B17) (name ~) (type input))
        (pin (num B18) (name ~) (type input)))))
  (libraries
    (library (logical Connector)
      (uri /usr/share/kicad/library/Connector.lib))
    (library (logical Connector_Generic)
      (uri /usr/share/kicad/library/Connector_Generic.lib))
    (library (logical Device)
      (uri /usr/share/kicad/library/Device.lib))
    (library (logical Sensor_Current)
      (uri /usr/share/kicad/library/Sensor_Current.lib))
    (library (logical gamerscomplete)
      (uri /home/chris/checkout/schematics/hextroller/gamerscomplete.lib))
    (library (logical pspice)
      (uri /usr/share/kicad/library/pspice.lib))
    (library (logical spider_lib)
      (uri /home/chris/checkout/schematics/appendage_power/../hexapod/spider_lib.lib)))
  (nets
    (net (code 1) (name "Net-(U1-Pad5)")
      (node (ref U1) (pin 5)))
    (net (code 2) (name /SERIAL)
      (node (ref J5) (pin 1))
      (node (ref J3) (pin B15))
      (node (ref J6) (pin 1))
      (node (ref U1) (pin 3))
      (node (ref J4) (pin 1))
      (node (ref J2) (pin 1)))
    (net (code 3) (name /SERVO_POWER)
      (node (ref J6) (pin 2))
      (node (ref J4) (pin 2))
      (node (ref U3) (pin 2))
      (node (ref J2) (pin 2))
      (node (ref J5) (pin 2)))
    (net (code 4) (name "Net-(U1-Pad44)")
      (node (ref U1) (pin 44)))
    (net (code 5) (name "Net-(U1-Pad45)")
      (node (ref U1) (pin 45)))
    (net (code 6) (name "Net-(U1-Pad7)")
      (node (ref U1) (pin 7)))
    (net (code 7) (name "Net-(U1-Pad6)")
      (node (ref U1) (pin 6)))
    (net (code 8) (name "Net-(U1-Pad4)")
      (node (ref U1) (pin 4)))
    (net (code 9) (name "Net-(U1-Pad2)")
      (node (ref U1) (pin 2)))
    (net (code 10) (name "Net-(U1-Pad18)")
      (node (ref U1) (pin 18)))
    (net (code 11) (name "Net-(U1-Pad17)")
      (node (ref U1) (pin 17)))
    (net (code 12) (name "Net-(U1-Pad16)")
      (node (ref U1) (pin 16)))
    (net (code 13) (name "Net-(U1-Pad13)")
      (node (ref U1) (pin 13)))
    (net (code 14) (name "Net-(U1-Pad12)")
      (node (ref U1) (pin 12)))
    (net (code 15) (name "Net-(U1-Pad11)")
      (node (ref U1) (pin 11)))
    (net (code 16) (name "Net-(U1-Pad10)")
      (node (ref U1) (pin 10)))
    (net (code 17) (name "Net-(U1-Pad28)")
      (node (ref U1) (pin 28)))
    (net (code 18) (name "Net-(U1-Pad8)")
      (node (ref U1) (pin 8)))
    (net (code 19) (name "Net-(U1-Pad9)")
      (node (ref U1) (pin 9)))
    (net (code 20) (name "Net-(U1-Pad30)")
      (node (ref U1) (pin 30)))
    (net (code 21) (name "Net-(U1-Pad31)")
      (node (ref U1) (pin 31)))
    (net (code 22) (name "Net-(U1-Pad32)")
      (node (ref U1) (pin 32)))
    (net (code 23) (name "Net-(J1-Pad6)")
      (node (ref J1) (pin 6)))
    (net (code 24) (name "Net-(J1-Pad5)")
      (node (ref J1) (pin 5)))
    (net (code 25) (name "Net-(J1-Pad4)")
      (node (ref J1) (pin 4)))
    (net (code 26) (name "Net-(J1-Pad3)")
      (node (ref J1) (pin 3)))
    (net (code 27) (name "Net-(J1-Pad2)")
      (node (ref J1) (pin 2)))
    (net (code 28) (name "Net-(J1-Pad1)")
      (node (ref J1) (pin 1)))
    (net (code 29) (name "Net-(D2-Pad1)")
      (node (ref R6) (pin 2))
      (node (ref D2) (pin 1)))
    (net (code 30) (name /REGULATOR_ENABLE)
      (node (ref D1) (pin 2))
      (node (ref U1) (pin 21))
      (node (ref U2) (pin 1))
      (node (ref R1) (pin 2)))
    (net (code 31) (name "Net-(U1-Pad33)")
      (node (ref U1) (pin 33)))
    (net (code 32) (name "Net-(U1-Pad22)")
      (node (ref U1) (pin 22)))
    (net (code 33) (name "Net-(U1-Pad23)")
      (node (ref U1) (pin 23)))
    (net (code 34) (name "Net-(U1-Pad37)")
      (node (ref U1) (pin 37)))
    (net (code 35) (name "Net-(U1-Pad38)")
      (node (ref U1) (pin 38)))
    (net (code 36) (name "Net-(U1-Pad39)")
      (node (ref U1) (pin 39)))
    (net (code 37) (name "Net-(U1-Pad40)")
      (node (ref U1) (pin 40)))
    (net (code 38) (name "Net-(U1-Pad41)")
      (node (ref U1) (pin 41)))
    (net (code 39) (name +3V3)
      (node (ref J3) (pin B18)))
    (net (code 40) (name "Net-(C5-Pad2)")
      (node (ref U2) (pin 21))
      (node (ref C5) (pin 2)))
    (net (code 41) (name "Net-(J3-PadA13)")
      (node (ref J3) (pin A13)))
    (net (code 42) (name "Net-(J3-PadA12)")
      (node (ref J3) (pin A12)))
    (net (code 43) (name "Net-(J3-PadA15)")
      (node (ref J3) (pin A15)))
    (net (code 44) (name "Net-(J3-PadA16)")
      (node (ref J3) (pin A16)))
    (net (code 45) (name "Net-(J3-PadA17)")
      (node (ref J3) (pin A17)))
    (net (code 46) (name "Net-(J3-PadA14)")
      (node (ref J3) (pin A14)))
    (net (code 47) (name "Net-(J3-PadB16)")
      (node (ref J3) (pin B16)))
    (net (code 48) (name "Net-(J3-PadA18)")
      (node (ref J3) (pin A18)))
    (net (code 49) (name "Net-(C4-Pad1)")
      (node (ref C4) (pin 1))
      (node (ref U2) (pin 22)))
    (net (code 50) (name "Net-(C2-Pad1)")
      (node (ref U2) (pin 20))
      (node (ref C2) (pin 1)))
    (net (code 51) (name /REGULATOR_FEEDBACK)
      (node (ref U1) (pin 20))
      (node (ref U2) (pin 2)))
    (net (code 52) (name GND)
      (node (ref R9) (pin 1))
      (node (ref R1) (pin 1))
      (node (ref J3) (pin B2))
      (node (ref R8) (pin 2))
      (node (ref J3) (pin B9))
      (node (ref J3) (pin B8))
      (node (ref J3) (pin B7))
      (node (ref J3) (pin B6))
      (node (ref J3) (pin B5))
      (node (ref J3) (pin B4))
      (node (ref J3) (pin B3))
      (node (ref C1) (pin 2))
      (node (ref C5) (pin 1))
      (node (ref C4) (pin 2))
      (node (ref U1) (pin 29))
      (node (ref R4) (pin 2))
      (node (ref U2) (pin 3))
      (node (ref C6) (pin 2))
      (node (ref U1) (pin 43))
      (node (ref C3) (pin 1))
      (node (ref U1) (pin 15))
      (node (ref U3) (pin 3))
      (node (ref R5) (pin 1))
      (node (ref U2) (pin 15))
      (node (ref U2) (pin 14))
      (node (ref U2) (pin 13))
      (node (ref U2) (pin 12))
      (node (ref R6) (pin 1))
      (node (ref J3) (pin B11))
      (node (ref J3) (pin B10))
      (node (ref J3) (pin B1))
      (node (ref J4) (pin 3))
      (node (ref J5) (pin 3))
      (node (ref J6) (pin 3))
      (node (ref J2) (pin 3)))
    (net (code 53) (name "Net-(R3-Pad2)")
      (node (ref U1) (pin 19))
      (node (ref R3) (pin 2))
      (node (ref R4) (pin 1)))
    (net (code 54) (name /SDA)
      (node (ref J3) (pin B13))
      (node (ref U1) (pin 46)))
    (net (code 55) (name /SCL)
      (node (ref U1) (pin 47))
      (node (ref J3) (pin B14)))
    (net (code 56) (name /SERVO_DIVIDED_VOLTAGE)
      (node (ref R8) (pin 1))
      (node (ref R7) (pin 2))
      (node (ref U1) (pin 48)))
    (net (code 57) (name "Net-(U3-Pad8)")
      (node (ref U3) (pin 8)))
    (net (code 58) (name "Net-(U3-Pad5)")
      (node (ref U3) (pin 5)))
    (net (code 59) (name "Net-(U3-Pad6)")
      (node (ref U3) (pin 6)))
    (net (code 60) (name "Net-(U3-Pad7)")
      (node (ref U3) (pin 7)))
    (net (code 61) (name /CURRENT_SENSOR_READING)
      (node (ref U3) (pin 9))
      (node (ref U1) (pin 1)))
    (net (code 62) (name /SERVO_POWER_RAW)
      (node (ref R7) (pin 1))
      (node (ref C6) (pin 1))
      (node (ref U3) (pin 1))
      (node (ref L1) (pin 2)))
    (net (code 63) (name "Net-(C3-Pad2)")
      (node (ref C3) (pin 2))
      (node (ref U2) (pin 19))
      (node (ref R2) (pin 1)))
    (net (code 64) (name +BATT)
      (node (ref R2) (pin 2))
      (node (ref J3) (pin A3))
      (node (ref U2) (pin 6))
      (node (ref U2) (pin 7))
      (node (ref U2) (pin 8))
      (node (ref U2) (pin 9))
      (node (ref U2) (pin IN))
      (node (ref C1) (pin 1))
      (node (ref J3) (pin A9))
      (node (ref J3) (pin A1))
      (node (ref J3) (pin A8))
      (node (ref J3) (pin A7))
      (node (ref J3) (pin A6))
      (node (ref J3) (pin A5))
      (node (ref J3) (pin A4))
      (node (ref J3) (pin A10))
      (node (ref R3) (pin 1))
      (node (ref J3) (pin A11))
      (node (ref J3) (pin A2)))
    (net (code 65) (name "Net-(C2-Pad2)")
      (node (ref C2) (pin 2))
      (node (ref U2) (pin LX))
      (node (ref U2) (pin 11))
      (node (ref U2) (pin 16))
      (node (ref U2) (pin 17))
      (node (ref U2) (pin 18))
      (node (ref L1) (pin 1))
      (node (ref U2) (pin 10)))
    (net (code 66) (name +5V)
      (node (ref U1) (pin 14))
      (node (ref U1) (pin 42))
      (node (ref J3) (pin B17))
      (node (ref U3) (pin 10)))
    (net (code 67) (name /MAINBOARD_INT)
      (node (ref U1) (pin 36))
      (node (ref J3) (pin B12)))
    (net (code 68) (name "Net-(U1-Pad35)")
      (node (ref U1) (pin 35)))
    (net (code 69) (name "Net-(U1-Pad34)")
      (node (ref U1) (pin 34)))
    (net (code 70) (name "Net-(U1-Pad27)")
      (node (ref U1) (pin 27)))
    (net (code 71) (name "Net-(U1-Pad26)")
      (node (ref U1) (pin 26)))
    (net (code 72) (name "Net-(U1-Pad25)")
      (node (ref U1) (pin 25)))
    (net (code 73) (name "Net-(U1-Pad24)")
      (node (ref U1) (pin 24)))
    (net (code 74) (name "Net-(D3-Pad1)")
      (node (ref R9) (pin 2))
      (node (ref D3) (pin 1)))
    (net (code 75) (name "Net-(D1-Pad1)")
      (node (ref D1) (pin 1))
      (node (ref R5) (pin 2)))
    (net (code 76) (name "Net-(D3-Pad2)")
      (node (ref U3) (pin 4))
      (node (ref D3) (pin 2)))
    (net (code 77) (name "Net-(D2-Pad2)")
      (node (ref D2) (pin 2)))))