EESchema Schematic File Version 4
EELAYER 30 0
EELAYER END
$Descr A4 11693 8268
encoding utf-8
Sheet 1 1
Title ""
Date ""
Rev ""
Comp ""
Comment1 ""
Comment2 ""
Comment3 ""
Comment4 ""
$EndDescr
$Comp
L spider_lib:AOZ2255LQI-31 U2
U 1 1 6199FFEA
P 3000 6400
F 0 "U2" H 2500 6650 50  0000 C CNN
F 1 "AOZ2255LQI-31" H 2750 6550 50  0000 C CNN
F 2 "hexapod:QFN-22" H 3000 6400 50  0001 C CNN
F 3 "" H 3000 6400 50  0001 C CNN
	1    3000 6400
	1    0    0    -1  
$EndComp
$Comp
L Device:C_Small C3
U 1 1 619A36CA
P 950 6900
F 0 "C3" V 1179 6900 50  0000 C CNN
F 1 "100pF" V 1088 6900 50  0000 C CNN
F 2 "Capacitor_SMD:C_0402_1005Metric" H 950 6900 50  0001 C CNN
F 3 "~" H 950 6900 50  0001 C CNN
	1    950  6900
	0    -1   -1   0   
$EndComp
$Comp
L Device:R_US R2
U 1 1 619A5B2F
P 1200 6600
F 0 "R2" H 1132 6554 50  0000 R CNN
F 1 "RTON" H 1132 6645 50  0000 R CNN
F 2 "Resistor_SMD:R_0603_1608Metric" V 1240 6590 50  0001 C CNN
F 3 "~" H 1200 6600 50  0001 C CNN
	1    1200 6600
	-1   0    0    1   
$EndComp
$Comp
L Device:C_Small C1
U 1 1 619A8856
P 1500 6350
F 0 "C1" H 1592 6396 50  0000 L CNN
F 1 "22uF" H 1592 6305 50  0000 L CNN
F 2 "Capacitor_SMD:C_1206_3216Metric" H 1500 6350 50  0001 C CNN
F 3 "~" H 1500 6350 50  0001 C CNN
	1    1500 6350
	-1   0    0    1   
$EndComp
$Comp
L Device:C_Small C6
U 1 1 619AB75E
P 5100 6500
F 0 "C6" H 5192 6546 50  0000 L CNN
F 1 "150uF" H 5192 6455 50  0000 L CNN
F 2 "hexapod:TAJV157M025RNJ_capacitor" H 5100 6500 50  0001 C CNN
F 3 "~" H 5100 6500 50  0001 C CNN
	1    5100 6500
	1    0    0    -1  
$EndComp
$Comp
L Device:C_Small C2
U 1 1 619B6963
P 1150 7400
F 0 "C2" H 1000 7450 50  0000 C CNN
F 1 "0.1uF" H 950 7350 50  0000 C CNN
F 2 "Capacitor_SMD:C_0402_1005Metric" H 1150 7400 50  0001 C CNN
F 3 "~" H 1150 7400 50  0001 C CNN
	1    1150 7400
	1    0    0    -1  
$EndComp
$Comp
L power:GNDA #PWR07
U 1 1 619F321E
P 850 6900
F 0 "#PWR07" H 850 6650 50  0001 C CNN
F 1 "GNDA" V 855 6773 50  0000 R CNN
F 2 "" H 850 6900 50  0001 C CNN
F 3 "" H 850 6900 50  0001 C CNN
	1    850  6900
	0    1    1    0   
$EndComp
Wire Wire Line
	1200 6750 1200 6900
Wire Wire Line
	1200 6900 1050 6900
$Comp
L power:+BATT #PWR04
U 1 1 61A073A3
P 1700 6450
F 0 "#PWR04" H 1700 6300 50  0001 C CNN
F 1 "+BATT" V 1700 6550 50  0000 L CNN
F 2 "" H 1700 6450 50  0001 C CNN
F 3 "" H 1700 6450 50  0001 C CNN
	1    1700 6450
	0    1    1    0   
$EndComp
Wire Wire Line
	1700 6450 1500 6450
$Comp
L power:GNDA #PWR08
U 1 1 61A1F55B
P 1750 7000
F 0 "#PWR08" H 1750 6750 50  0001 C CNN
F 1 "GNDA" V 1755 6873 50  0000 R CNN
F 2 "" H 1750 7000 50  0001 C CNN
F 3 "" H 1750 7000 50  0001 C CNN
	1    1750 7000
	0    1    1    0   
$EndComp
$Comp
L Device:C_Small C4
U 1 1 61A21CA4
P 1850 7000
F 0 "C4" V 1800 7150 50  0000 C CNN
F 1 "Css" V 1900 7150 50  0000 C CNN
F 2 "Capacitor_SMD:C_0402_1005Metric" H 1850 7000 50  0001 C CNN
F 3 "~" H 1850 7000 50  0001 C CNN
	1    1850 7000
	0    1    1    0   
$EndComp
Wire Wire Line
	1950 7000 2100 7000
Text Label 2100 5550 2    50   ~ 0
REGULATOR_ENABLE
Wire Wire Line
	4400 6400 5100 6400
Wire Wire Line
	3050 6400 3250 6400
Wire Wire Line
	3250 6400 3250 6150
Wire Wire Line
	4400 6150 4400 6400
$Comp
L Device:C_Small C5
U 1 1 61A8B678
P 3300 7000
F 0 "C5" V 3071 7000 50  0000 C CNN
F 1 "4.7uF" V 3162 7000 50  0000 C CNN
F 2 "Capacitor_SMD:C_0805_2012Metric" H 3300 7000 50  0001 C CNN
F 3 "~" H 3300 7000 50  0001 C CNN
	1    3300 7000
	0    1    1    0   
$EndComp
$Comp
L power:GNDA #PWR011
U 1 1 61A8E574
P 3400 7000
F 0 "#PWR011" H 3400 6750 50  0001 C CNN
F 1 "GNDA" V 3405 6873 50  0000 R CNN
F 2 "" H 3400 7000 50  0001 C CNN
F 3 "" H 3400 7000 50  0001 C CNN
	1    3400 7000
	0    -1   -1   0   
$EndComp
$Comp
L power:+BATT #PWR024
U 1 1 61AC7FF1
P 9250 1100
F 0 "#PWR024" H 9250 950 50  0001 C CNN
F 1 "+BATT" V 9265 1227 50  0000 L CNN
F 2 "" H 9250 1100 50  0001 C CNN
F 3 "" H 9250 1100 50  0001 C CNN
	1    9250 1100
	0    -1   -1   0   
$EndComp
Wire Wire Line
	5100 6600 5100 6750
Text Label 10200 2200 0    50   ~ 0
SDA
Text Label 2200 7400 2    50   ~ 0
REGULATOR_FEEDBACK
Text Label 4600 6950 0    50   ~ 0
SERVO_DIVIDED_VOLTAGE
Wire Wire Line
	4400 6400 4400 6600
Connection ~ 4400 6400
Text Label 10200 2300 0    50   ~ 0
SCL
Text Label 2250 1050 0    50   ~ 0
SDA
Text Label 2250 1150 0    50   ~ 0
SCL
Text Label 5450 6400 0    50   ~ 0
SERVO_POWER_RAW
$Comp
L power:GND #PWR019
U 1 1 61B61877
P 5950 7300
F 0 "#PWR019" H 5950 7050 50  0001 C CNN
F 1 "GND" H 5955 7127 50  0000 C CNN
F 2 "" H 5950 7300 50  0001 C CNN
F 3 "" H 5950 7300 50  0001 C CNN
	1    5950 7300
	1    0    0    -1  
$EndComp
$Comp
L power:GNDA #PWR020
U 1 1 61B68472
P 6450 7300
F 0 "#PWR020" H 6450 7050 50  0001 C CNN
F 1 "GNDA" H 6455 7127 50  0000 C CNN
F 2 "" H 6450 7300 50  0001 C CNN
F 3 "" H 6450 7300 50  0001 C CNN
	1    6450 7300
	1    0    0    -1  
$EndComp
$Comp
L Device:R_US R7
U 1 1 61B7BAB4
P 4400 6750
F 0 "R7" H 4468 6796 50  0000 L CNN
F 1 "2200000" H 4468 6705 50  0000 L CNN
F 2 "Resistor_SMD:R_0603_1608Metric" V 4440 6740 50  0001 C CNN
F 3 "~" H 4400 6750 50  0001 C CNN
	1    4400 6750
	1    0    0    -1  
$EndComp
$Comp
L Device:R_US R8
U 1 1 61B7D716
P 4400 7150
F 0 "R8" H 4468 7196 50  0000 L CNN
F 1 "392000" H 4468 7105 50  0000 L CNN
F 2 "Resistor_SMD:R_0603_1608Metric" V 4440 7140 50  0001 C CNN
F 3 "~" H 4400 7150 50  0001 C CNN
	1    4400 7150
	1    0    0    -1  
$EndComp
Wire Wire Line
	4400 6900 4400 6950
Wire Wire Line
	4600 6950 4400 6950
Connection ~ 4400 6950
Wire Wire Line
	4400 6950 4400 7000
Wire Wire Line
	2250 1150 2100 1150
Wire Wire Line
	2250 1050 2100 1050
$Comp
L power:+5V #PWR026
U 1 1 61BA1C02
P 10750 2600
F 0 "#PWR026" H 10750 2450 50  0001 C CNN
F 1 "+5V" V 10765 2728 50  0000 L CNN
F 2 "" H 10750 2600 50  0001 C CNN
F 3 "" H 10750 2600 50  0001 C CNN
	1    10750 2600
	0    1    1    0   
$EndComp
$Comp
L power:+5V #PWR02
U 1 1 61BB34EB
P 950 2850
F 0 "#PWR02" H 950 2700 50  0001 C CNN
F 1 "+5V" V 950 3050 50  0000 C CNN
F 2 "" H 950 2850 50  0001 C CNN
F 3 "" H 950 2850 50  0001 C CNN
	1    950  2850
	0    -1   -1   0   
$EndComp
$Comp
L power:GND #PWR03
U 1 1 61BB4F08
P 950 3050
F 0 "#PWR03" H 950 2800 50  0001 C CNN
F 1 "GND" V 950 2850 50  0000 C CNN
F 2 "" H 950 3050 50  0001 C CNN
F 3 "" H 950 3050 50  0001 C CNN
	1    950  3050
	0    1    1    0   
$EndComp
$Comp
L power:GND #PWR012
U 1 1 61BC191E
P 3450 7300
F 0 "#PWR012" H 3450 7050 50  0001 C CNN
F 1 "GND" V 3455 7127 50  0000 C CNN
F 2 "" H 3450 7300 50  0001 C CNN
F 3 "" H 3450 7300 50  0001 C CNN
	1    3450 7300
	0    -1   -1   0   
$EndComp
Wire Wire Line
	3450 7300 3050 7300
$Comp
L Sensor_Current:ACS711xEXLT-31AB U3
U 1 1 61BD4A1B
P 5400 1450
F 0 "U3" H 5250 2200 50  0000 C CNN
F 1 "‎ACS726LLFTR-40B-T" H 5400 2100 50  0000 C CNN
F 2 "Sensor_Current:Allegro_QFN-12-10-1EP_3x3mm_P0.5mm" H 5750 1400 50  0001 L CIN
F 3 "http://www.allegromicro.com/~/Media/Files/Datasheets/ACS711-Datasheet.ashx" H 5400 1450 50  0001 C CNN
	1    5400 1450
	1    0    0    -1  
$EndComp
$Comp
L power:GND #PWR016
U 1 1 61BD5B0C
P 5400 2000
F 0 "#PWR016" H 5400 1750 50  0001 C CNN
F 1 "GND" H 5405 1827 50  0000 C CNN
F 2 "" H 5400 2000 50  0001 C CNN
F 3 "" H 5400 2000 50  0001 C CNN
	1    5400 2000
	1    0    0    -1  
$EndComp
NoConn ~ 5600 1850
NoConn ~ 5500 1850
NoConn ~ 5300 1850
NoConn ~ 5200 1850
Wire Wire Line
	5400 1850 5400 2000
Text Label 4900 1250 2    50   ~ 0
SERVO_POWER_RAW
Text Label 4900 1550 2    50   ~ 0
SERVO_POWER
Wire Wire Line
	5000 1550 4900 1550
Wire Wire Line
	5000 1250 4900 1250
$Comp
L power:+5V #PWR017
U 1 1 61BF536E
P 5500 1000
F 0 "#PWR017" H 5500 850 50  0001 C CNN
F 1 "+5V" V 5500 1200 50  0000 C CNN
F 2 "" H 5500 1000 50  0001 C CNN
F 3 "" H 5500 1000 50  0001 C CNN
	1    5500 1000
	0    1    1    0   
$EndComp
Wire Wire Line
	5500 1000 5400 1000
Wire Wire Line
	5400 1000 5400 1050
$Comp
L Device:R_US R3
U 1 1 61C3DC1C
P 3350 1250
F 0 "R3" H 3418 1296 50  0000 L CNN
F 1 "2200000" H 3418 1205 50  0000 L CNN
F 2 "Resistor_SMD:R_0603_1608Metric" V 3390 1240 50  0001 C CNN
F 3 "~" H 3350 1250 50  0001 C CNN
	1    3350 1250
	1    0    0    -1  
$EndComp
$Comp
L Device:R_US R4
U 1 1 61C3DC22
P 3350 1650
F 0 "R4" H 3418 1696 50  0000 L CNN
F 1 "392000" H 3418 1605 50  0000 L CNN
F 2 "Resistor_SMD:R_0603_1608Metric" V 3390 1640 50  0001 C CNN
F 3 "~" H 3350 1650 50  0001 C CNN
	1    3350 1650
	1    0    0    -1  
$EndComp
$Comp
L power:GND #PWR010
U 1 1 61C3DC28
P 3350 1800
F 0 "#PWR010" H 3350 1550 50  0001 C CNN
F 1 "GND" H 3355 1627 50  0000 C CNN
F 2 "" H 3350 1800 50  0001 C CNN
F 3 "" H 3350 1800 50  0001 C CNN
	1    3350 1800
	1    0    0    -1  
$EndComp
$Comp
L power:+BATT #PWR09
U 1 1 61C48C5D
P 3350 1100
F 0 "#PWR09" H 3350 950 50  0001 C CNN
F 1 "+BATT" H 3365 1273 50  0000 C CNN
F 2 "" H 3350 1100 50  0001 C CNN
F 3 "" H 3350 1100 50  0001 C CNN
	1    3350 1100
	1    0    0    -1  
$EndComp
Text Label 2250 1350 0    50   ~ 0
CURRENT_SENSOR_READING
Text Label 5900 1450 0    50   ~ 0
CURRENT_SENSOR_READING
Wire Wire Line
	5800 1450 5900 1450
Wire Wire Line
	2250 1350 2100 1350
Text Label 2250 1750 0    50   ~ 0
REGULATOR_ENABLE
Wire Wire Line
	2250 1750 2100 1750
Wire Wire Line
	2250 1650 2100 1650
Wire Wire Line
	3250 6150 3900 6150
$Comp
L power:PWR_FLAG #FLG01
U 1 1 61DFBF50
P 9300 1100
F 0 "#FLG01" H 9300 1175 50  0001 C CNN
F 1 "PWR_FLAG" H 9300 1273 50  0000 C CNN
F 2 "" H 9300 1100 50  0001 C CNN
F 3 "~" H 9300 1100 50  0001 C CNN
	1    9300 1100
	1    0    0    -1  
$EndComp
$Comp
L power:PWR_FLAG #FLG02
U 1 1 61DFCAFC
P 10350 1100
F 0 "#FLG02" H 10350 1175 50  0001 C CNN
F 1 "PWR_FLAG" H 10350 1273 50  0000 C CNN
F 2 "" H 10350 1100 50  0001 C CNN
F 3 "~" H 10350 1100 50  0001 C CNN
	1    10350 1100
	1    0    0    -1  
$EndComp
Wire Wire Line
	5950 7300 6450 7300
$Comp
L power:GND #PWR025
U 1 1 61E210D2
P 10350 1100
F 0 "#PWR025" H 10350 850 50  0001 C CNN
F 1 "GND" V 10350 900 50  0000 C CNN
F 2 "" H 10350 1100 50  0001 C CNN
F 3 "" H 10350 1100 50  0001 C CNN
	1    10350 1100
	0    -1   -1   0   
$EndComp
Wire Wire Line
	9250 1100 9300 1100
$Comp
L power:PWR_FLAG #FLG03
U 1 1 61E3BAF5
P 10750 2600
F 0 "#FLG03" H 10750 2675 50  0001 C CNN
F 1 "PWR_FLAG" H 10750 2773 50  0000 C CNN
F 2 "" H 10750 2600 50  0001 C CNN
F 3 "~" H 10750 2600 50  0001 C CNN
	1    10750 2600
	1    0    0    -1  
$EndComp
$Comp
L Device:LED D2
U 1 1 61E578C7
P 6400 3200
F 0 "D2" H 6393 2945 50  0000 C CNN
F 1 "POWER_LED" H 6393 3036 50  0000 C CNN
F 2 "LED_SMD:LED_0603_1608Metric" H 6400 3200 50  0001 C CNN
F 3 "~" H 6400 3200 50  0001 C CNN
	1    6400 3200
	-1   0    0    1   
$EndComp
$Comp
L Device:R_US R1
U 1 1 61EA18FC
P 1900 5850
F 0 "R1" V 2105 5850 50  0000 C CNN
F 1 "10k" V 2014 5850 50  0000 C CNN
F 2 "Resistor_SMD:R_0603_1608Metric" V 1940 5840 50  0001 C CNN
F 3 "~" H 1900 5850 50  0001 C CNN
	1    1900 5850
	0    -1   -1   0   
$EndComp
$Comp
L power:GND #PWR01
U 1 1 61EA615E
P 1600 5850
F 0 "#PWR01" H 1600 5600 50  0001 C CNN
F 1 "GND" V 1600 5650 50  0000 C CNN
F 2 "" H 1600 5850 50  0001 C CNN
F 3 "" H 1600 5850 50  0001 C CNN
	1    1600 5850
	0    1    1    0   
$EndComp
Wire Wire Line
	2100 5550 2100 5850
Wire Wire Line
	2050 5850 2100 5850
Wire Wire Line
	1750 5850 1600 5850
Connection ~ 9300 1100
Connection ~ 10750 2600
Wire Wire Line
	10200 2200 10100 2200
Wire Wire Line
	10100 2300 10200 2300
Wire Wire Line
	5450 6400 5100 6400
Connection ~ 5100 6400
$Comp
L power:GNDA #PWR06
U 1 1 61E17948
P 1550 7200
F 0 "#PWR06" H 1550 6950 50  0001 C CNN
F 1 "GNDA" V 1555 7073 50  0000 R CNN
F 2 "" H 1550 7200 50  0001 C CNN
F 3 "" H 1550 7200 50  0001 C CNN
	1    1550 7200
	0    1    1    0   
$EndComp
Wire Wire Line
	1150 7100 1150 7300
Wire Wire Line
	1150 7100 1650 7100
Wire Wire Line
	1150 7500 1150 7550
Text Label 2250 1650 0    50   ~ 0
REGULATOR_FEEDBACK
$Comp
L gamerscomplete:ATMEGA809-MU U1
U 1 1 61ADC214
P 1600 800
F 0 "U1" H 1575 1015 50  0000 C CNN
F 1 "ATMEGA809-MU" H 1575 924 50  0000 C CNN
F 2 "Package_DFN_QFN:VQFN-48-1EP_7x7mm_P0.5mm_EP4.1x4.1mm_ThermalVias" H 1400 -300 50  0001 C CNN
F 3 "" H 1400 -300 50  0001 C CNN
	1    1600 800 
	1    0    0    -1  
$EndComp
Wire Wire Line
	1050 2950 1050 3050
Wire Wire Line
	1050 3150 1050 3050
Connection ~ 1050 3050
Wire Wire Line
	950  3050 1050 3050
Wire Wire Line
	950  2850 1050 2850
Wire Wire Line
	1050 2750 1050 2850
Connection ~ 1050 2850
Text Label 10200 2100 0    50   ~ 0
MAINBOARD_INT
Wire Wire Line
	10200 2100 10100 2100
Text Label 2250 950  0    50   ~ 0
MAINBOARD_INT
Wire Wire Line
	2250 950  2100 950 
$Comp
L Device:LED D3
U 1 1 61B6CD19
P 6450 1750
F 0 "D3" H 6600 1800 50  0000 C CNN
F 1 "CURRENT_SENSOR_FAULT" H 6500 1900 50  0000 C CNN
F 2 "LED_SMD:LED_0603_1608Metric" H 6450 1750 50  0001 C CNN
F 3 "~" H 6450 1750 50  0001 C CNN
	1    6450 1750
	-1   0    0    1   
$EndComp
Wire Wire Line
	5800 1550 5800 1750
Wire Wire Line
	5800 1750 6300 1750
$Comp
L Device:R_US R9
U 1 1 61B72462
P 6750 1750
F 0 "R9" V 6545 1750 50  0000 C CNN
F 1 "R_US" V 6636 1750 50  0000 C CNN
F 2 "Resistor_SMD:R_0603_1608Metric" V 6790 1740 50  0001 C CNN
F 3 "~" H 6750 1750 50  0001 C CNN
	1    6750 1750
	0    1    1    0   
$EndComp
$Comp
L power:GND #PWR021
U 1 1 61B73F3D
P 6900 1750
F 0 "#PWR021" H 6900 1500 50  0001 C CNN
F 1 "GND" H 6905 1577 50  0000 C CNN
F 2 "" H 6900 1750 50  0001 C CNN
F 3 "" H 6900 1750 50  0001 C CNN
	1    6900 1750
	0    -1   -1   0   
$EndComp
$Comp
L Device:LED D1
U 1 1 61B85644
P 6400 2750
F 0 "D1" H 6393 2495 50  0000 C CNN
F 1 "Regulator Enabled LED" H 6393 2586 50  0000 C CNN
F 2 "LED_SMD:LED_0603_1608Metric" H 6400 2750 50  0001 C CNN
F 3 "~" H 6400 2750 50  0001 C CNN
	1    6400 2750
	-1   0    0    1   
$EndComp
$Comp
L Device:R_US R5
U 1 1 61B8CA77
P 6950 2750
F 0 "R5" V 6745 2750 50  0000 C CNN
F 1 "R_US" V 6836 2750 50  0000 C CNN
F 2 "Resistor_SMD:R_0603_1608Metric" V 6990 2740 50  0001 C CNN
F 3 "~" H 6950 2750 50  0001 C CNN
	1    6950 2750
	0    1    1    0   
$EndComp
$Comp
L power:GND #PWR013
U 1 1 61B8CA7D
P 7100 2750
F 0 "#PWR013" H 7100 2500 50  0001 C CNN
F 1 "GND" H 7105 2577 50  0000 C CNN
F 2 "" H 7100 2750 50  0001 C CNN
F 3 "" H 7100 2750 50  0001 C CNN
	1    7100 2750
	0    -1   -1   0   
$EndComp
Wire Wire Line
	6550 2750 6800 2750
Text Label 6050 2750 2    50   ~ 0
REGULATOR_ENABLE
Wire Wire Line
	6050 2750 6250 2750
$Comp
L Device:R_US R6
U 1 1 61BAA09A
P 6950 3200
F 0 "R6" V 6745 3200 50  0000 C CNN
F 1 "R_US" V 6836 3200 50  0000 C CNN
F 2 "Resistor_SMD:R_0603_1608Metric" V 6990 3190 50  0001 C CNN
F 3 "~" H 6950 3200 50  0001 C CNN
	1    6950 3200
	0    1    1    0   
$EndComp
$Comp
L power:GND #PWR014
U 1 1 61BAA0A0
P 7100 3200
F 0 "#PWR014" H 7100 2950 50  0001 C CNN
F 1 "GND" H 7105 3027 50  0000 C CNN
F 2 "" H 7100 3200 50  0001 C CNN
F 3 "" H 7100 3200 50  0001 C CNN
	1    7100 3200
	0    -1   -1   0   
$EndComp
Wire Wire Line
	6800 3200 6550 3200
$Comp
L Connector:AVR-ISP-6 J1
U 1 1 61CBE057
P 1700 4050
F 0 "J1" H 1370 4146 50  0000 R CNN
F 1 "Programming header" H 1370 4055 50  0000 R CNN
F 2 "Connector_PinSocket_2.54mm:PinSocket_2x03_P2.54mm_Vertical" V 1450 4100 50  0001 C CNN
F 3 " ~" H 425 3500 50  0001 C CNN
	1    1700 4050
	1    0    0    -1  
$EndComp
Wire Wire Line
	3050 7100 3050 7200
Connection ~ 3050 7200
Wire Wire Line
	3050 7200 3050 7300
Wire Wire Line
	2100 6400 2300 6400
Wire Wire Line
	2300 6800 2300 6700
Connection ~ 2300 6600
Wire Wire Line
	2300 6600 2300 6500
Connection ~ 2300 6700
Wire Wire Line
	2300 6700 2300 6600
Wire Wire Line
	1500 6450 1200 6450
Wire Wire Line
	3050 6800 3050 6700
Connection ~ 3050 6400
Connection ~ 3050 6500
Wire Wire Line
	3050 6500 3050 6400
Connection ~ 3050 6600
Wire Wire Line
	3050 6600 3050 6500
Connection ~ 3050 6700
Wire Wire Line
	3050 6700 3050 6600
Connection ~ 3050 7300
Wire Wire Line
	3050 7000 3200 7000
Wire Wire Line
	1500 6600 2300 6600
Connection ~ 1200 6900
Wire Wire Line
	1500 6450 1500 6600
Connection ~ 1500 6450
Wire Wire Line
	2100 5850 2100 6400
Connection ~ 2100 5850
Wire Wire Line
	1150 7550 3900 7550
Wire Wire Line
	3900 7550 3900 6150
Wire Wire Line
	1200 6900 2150 6900
Wire Wire Line
	9300 1100 9550 1100
Wire Wire Line
	10350 1100 10100 1100
Connection ~ 10350 1100
$Comp
L power:+3.3V #PWR0101
U 1 1 61CEC79D
P 10200 2700
F 0 "#PWR0101" H 10200 2550 50  0001 C CNN
F 1 "+3.3V" V 10215 2828 50  0000 L CNN
F 2 "" H 10200 2700 50  0001 C CNN
F 3 "" H 10200 2700 50  0001 C CNN
	1    10200 2700
	0    1    1    0   
$EndComp
$Comp
L power:PWR_FLAG #FLG0101
U 1 1 61CEDADA
P 10150 2700
F 0 "#FLG0101" H 10150 2775 50  0001 C CNN
F 1 "PWR_FLAG" H 10150 2873 50  0000 C CNN
F 2 "" H 10150 2700 50  0001 C CNN
F 3 "~" H 10150 2700 50  0001 C CNN
	1    10150 2700
	-1   0    0    1   
$EndComp
Wire Wire Line
	10200 2700 10150 2700
Connection ~ 10150 2700
Wire Wire Line
	10150 2700 10100 2700
NoConn ~ 2100 3150
NoConn ~ 2100 1250
NoConn ~ 2100 2850
NoConn ~ 2100 2750
NoConn ~ 2100 1950
NoConn ~ 2100 1850
NoConn ~ 1050 2550
NoConn ~ 1050 2450
NoConn ~ 1050 2350
NoConn ~ 1050 2250
NoConn ~ 1050 2150
NoConn ~ 1050 2050
NoConn ~ 1050 2650
NoConn ~ 1050 850 
NoConn ~ 1050 950 
NoConn ~ 1050 1050
NoConn ~ 1050 1150
NoConn ~ 1050 1250
NoConn ~ 1050 1350
NoConn ~ 1050 1450
NoConn ~ 2100 1450
NoConn ~ 1050 1650
NoConn ~ 1050 1750
NoConn ~ 1050 1850
NoConn ~ 1050 1950
NoConn ~ 2100 3050
NoConn ~ 2100 850 
$Comp
L Connector_Generic:Conn_01x03 J2
U 1 1 61DE0017
P 9400 3800
F 0 "J2" H 9480 3842 50  0000 L CNN
F 1 "Servo 1" H 9480 3751 50  0000 L CNN
F 2 "Connector_Molex:Molex_SPOX_5267-03A_1x03_P2.50mm_Vertical" H 9400 3800 50  0001 C CNN
F 3 "~" H 9400 3800 50  0001 C CNN
	1    9400 3800
	1    0    0    -1  
$EndComp
Text Label 9100 3800 2    50   ~ 0
SERVO_POWER
Text Label 9100 3700 2    50   ~ 0
SERIAL
$Comp
L power:GND #PWR0102
U 1 1 61DE7B90
P 9100 3900
F 0 "#PWR0102" H 9100 3650 50  0001 C CNN
F 1 "GND" V 9105 3772 50  0000 R CNN
F 2 "" H 9100 3900 50  0001 C CNN
F 3 "" H 9100 3900 50  0001 C CNN
	1    9100 3900
	0    1    1    0   
$EndComp
Wire Wire Line
	9100 3900 9200 3900
Wire Wire Line
	9200 3800 9100 3800
Wire Wire Line
	9100 3700 9200 3700
$Comp
L Connector_Generic:Conn_01x03 J4
U 1 1 61DF218E
P 9400 4200
F 0 "J4" H 9480 4242 50  0000 L CNN
F 1 "Servo 2" H 9480 4151 50  0000 L CNN
F 2 "Connector_Molex:Molex_SPOX_5267-03A_1x03_P2.50mm_Vertical" H 9400 4200 50  0001 C CNN
F 3 "~" H 9400 4200 50  0001 C CNN
	1    9400 4200
	1    0    0    -1  
$EndComp
Text Label 9100 4200 2    50   ~ 0
SERVO_POWER
Text Label 9100 4100 2    50   ~ 0
SERIAL
$Comp
L power:GND #PWR0103
U 1 1 61DF2196
P 9100 4300
F 0 "#PWR0103" H 9100 4050 50  0001 C CNN
F 1 "GND" V 9105 4172 50  0000 R CNN
F 2 "" H 9100 4300 50  0001 C CNN
F 3 "" H 9100 4300 50  0001 C CNN
	1    9100 4300
	0    1    1    0   
$EndComp
Wire Wire Line
	9100 4300 9200 4300
Wire Wire Line
	9200 4200 9100 4200
Wire Wire Line
	9100 4100 9200 4100
$Comp
L Connector_Generic:Conn_01x03 J5
U 1 1 61DF5A25
P 9400 4600
F 0 "J5" H 9480 4642 50  0000 L CNN
F 1 "Servo 3" H 9480 4551 50  0000 L CNN
F 2 "Connector_Molex:Molex_SPOX_5267-03A_1x03_P2.50mm_Vertical" H 9400 4600 50  0001 C CNN
F 3 "~" H 9400 4600 50  0001 C CNN
	1    9400 4600
	1    0    0    -1  
$EndComp
Text Label 9100 4600 2    50   ~ 0
SERVO_POWER
Text Label 9100 4500 2    50   ~ 0
SERIAL
$Comp
L power:GND #PWR0104
U 1 1 61DF5A2D
P 9100 4700
F 0 "#PWR0104" H 9100 4450 50  0001 C CNN
F 1 "GND" V 9105 4572 50  0000 R CNN
F 2 "" H 9100 4700 50  0001 C CNN
F 3 "" H 9100 4700 50  0001 C CNN
	1    9100 4700
	0    1    1    0   
$EndComp
Wire Wire Line
	9100 4700 9200 4700
Wire Wire Line
	9200 4600 9100 4600
Wire Wire Line
	9100 4500 9200 4500
$Comp
L Connector_Generic:Conn_01x03 J6
U 1 1 61DF95D7
P 9400 5000
F 0 "J6" H 9480 5042 50  0000 L CNN
F 1 "Servo 4" H 9480 4951 50  0000 L CNN
F 2 "Connector_Molex:Molex_SPOX_5267-03A_1x03_P2.50mm_Vertical" H 9400 5000 50  0001 C CNN
F 3 "~" H 9400 5000 50  0001 C CNN
	1    9400 5000
	1    0    0    -1  
$EndComp
Text Label 9100 5000 2    50   ~ 0
SERVO_POWER
Text Label 9100 4900 2    50   ~ 0
SERIAL
$Comp
L power:GND #PWR0105
U 1 1 61DF95DF
P 9100 5100
F 0 "#PWR0105" H 9100 4850 50  0001 C CNN
F 1 "GND" V 9105 4972 50  0000 R CNN
F 2 "" H 9100 5100 50  0001 C CNN
F 3 "" H 9100 5100 50  0001 C CNN
	1    9100 5100
	0    1    1    0   
$EndComp
Wire Wire Line
	9100 5100 9200 5100
Wire Wire Line
	9200 5000 9100 5000
Wire Wire Line
	9100 4900 9200 4900
Text Label 2250 1550 0    50   ~ 0
SERIAL
Wire Wire Line
	2250 1550 2100 1550
$Comp
L spider_lib:pcie-36 J3
U 1 1 61E5D562
P 9800 1800
F 0 "J3" H 9825 2825 50  0000 C CNN
F 1 "pcie-36" H 9825 2734 50  0000 C CNN
F 2 "Connector_PCBEdge:BUS_PCIexpress_x1" H 9650 2350 50  0001 C CNN
F 3 "" H 9650 2350 50  0001 C CNN
	1    9800 1800
	1    0    0    -1  
$EndComp
Wire Wire Line
	9550 1000 9550 1100
Connection ~ 9550 1100
Wire Wire Line
	9550 1100 9550 1200
Connection ~ 9550 1200
Wire Wire Line
	9550 1200 9550 1300
Connection ~ 9550 1300
Wire Wire Line
	9550 1300 9550 1400
Connection ~ 9550 1400
Wire Wire Line
	9550 1400 9550 1500
Connection ~ 9550 1500
Wire Wire Line
	9550 1500 9550 1600
Connection ~ 9550 1600
Wire Wire Line
	9550 1600 9550 1700
Connection ~ 9550 1700
Wire Wire Line
	9550 1700 9550 1800
Connection ~ 9550 1800
Wire Wire Line
	9550 1800 9550 1900
Connection ~ 9550 1900
Wire Wire Line
	9550 1900 9550 2000
Wire Wire Line
	10100 2000 10100 1900
Connection ~ 10100 1100
Wire Wire Line
	10100 1100 10100 1000
Connection ~ 10100 1200
Wire Wire Line
	10100 1200 10100 1100
Connection ~ 10100 1300
Wire Wire Line
	10100 1300 10100 1200
Connection ~ 10100 1400
Wire Wire Line
	10100 1400 10100 1300
Connection ~ 10100 1500
Wire Wire Line
	10100 1500 10100 1400
Connection ~ 10100 1600
Wire Wire Line
	10100 1600 10100 1500
Connection ~ 10100 1700
Wire Wire Line
	10100 1700 10100 1600
Connection ~ 10100 1800
Wire Wire Line
	10100 1800 10100 1700
Connection ~ 10100 1900
Wire Wire Line
	10100 1900 10100 1800
NoConn ~ 9550 2700
NoConn ~ 10100 2500
NoConn ~ 9550 2300
NoConn ~ 9550 2600
NoConn ~ 9550 2500
NoConn ~ 9550 2400
NoConn ~ 9550 2100
NoConn ~ 9550 2200
Wire Wire Line
	10100 2600 10750 2600
Wire Wire Line
	3350 1400 3350 1450
Wire Wire Line
	3350 1450 3950 1450
Wire Wire Line
	3950 1450 3950 500 
Wire Wire Line
	3950 500  600  500 
Connection ~ 3350 1450
Wire Wire Line
	3350 1450 3350 1500
Wire Wire Line
	600  1550 1050 1550
Wire Wire Line
	600  500  600  1550
Connection ~ 3900 6150
$Comp
L pspice:INDUCTOR L1
U 1 1 619AD03E
P 4150 6150
F 0 "L1" H 4150 6365 50  0000 C CNN
F 1 "0.68uH" H 4150 6250 50  0000 C CNN
F 2 "hexapod:BMRA00060630R68MA1_inductor" H 4150 6150 50  0001 C CNN
F 3 "~" H 4150 6150 50  0001 C CNN
	1    4150 6150
	1    0    0    -1  
$EndComp
$Comp
L power:GNDA #PWR0106
U 1 1 61DF34A4
P 5100 6750
F 0 "#PWR0106" H 5100 6500 50  0001 C CNN
F 1 "GNDA" V 5100 6500 50  0000 C CNN
F 2 "" H 5100 6750 50  0001 C CNN
F 3 "" H 5100 6750 50  0001 C CNN
	1    5100 6750
	0    -1   -1   0   
$EndComp
$Comp
L power:GNDA #PWR0107
U 1 1 61DFC9FD
P 4400 7300
F 0 "#PWR0107" H 4400 7050 50  0001 C CNN
F 1 "GNDA" H 4400 7150 50  0000 C CNN
F 2 "" H 4400 7300 50  0001 C CNN
F 3 "" H 4400 7300 50  0001 C CNN
	1    4400 7300
	1    0    0    -1  
$EndComp
$Comp
L power:GND #PWR0108
U 1 1 61E15A18
P 1500 6250
F 0 "#PWR0108" H 1500 6000 50  0001 C CNN
F 1 "GND" H 1500 6100 50  0000 C CNN
F 2 "" H 1500 6250 50  0001 C CNN
F 3 "" H 1500 6250 50  0001 C CNN
	1    1500 6250
	-1   0    0    1   
$EndComp
Wire Wire Line
	3050 7300 3050 7400
Wire Wire Line
	3050 6900 3050 6800
Connection ~ 3050 6800
Wire Wire Line
	2200 7400 2300 7400
Wire Wire Line
	2300 7300 1550 7300
Wire Wire Line
	1550 7300 1550 7200
Wire Wire Line
	2300 7200 1650 7200
Wire Wire Line
	1650 7200 1650 7100
Wire Wire Line
	2300 7100 2100 7100
Wire Wire Line
	2100 7100 2100 7000
Wire Wire Line
	2150 6900 2150 7000
Wire Wire Line
	2150 7000 2300 7000
Wire Wire Line
	2300 6900 2300 6800
Connection ~ 2300 6800
NoConn ~ 2100 2650
NoConn ~ 2100 2550
NoConn ~ 2100 2450
NoConn ~ 2100 2350
NoConn ~ 2100 2250
NoConn ~ 2100 2150
NoConn ~ 2100 2050
Wire Wire Line
	2250 2950 2100 2950
Text Label 2250 2950 0    50   ~ 0
SERVO_DIVIDED_VOLTAGE
NoConn ~ 10100 2400
$EndSCHEMATC
