EESchema Schematic File Version 4
EELAYER 30 0
EELAYER END
$Descr A3 16535 11693
encoding utf-8
Sheet 1 1
Title ""
Date ""
Rev ""
Comp ""
Comment1 ""
Comment2 ""
Comment3 ""
Comment4 ""
$EndDescr
$Comp
L Connector_Generic:Conn_01x02 J18
U 1 1 6193951B
P 10500 900
F 0 "J18" H 10580 892 50  0000 L CNN
F 1 "Raw battery input" H 10580 801 50  0000 L CNN
F 2 "Connector_AMASS:AMASS_XT60-F_1x02_P7.20mm_Vertical" H 10500 900 50  0001 C CNN
F 3 "~" H 10500 900 50  0001 C CNN
	1    10500 900 
	1    0    0    -1  
$EndComp
$Comp
L power:GND #PWR048
U 1 1 6193AA65
P 10200 1000
F 0 "#PWR048" H 10200 750 50  0001 C CNN
F 1 "GND" H 10205 827 50  0000 C CNN
F 2 "" H 10200 1000 50  0001 C CNN
F 3 "" H 10200 1000 50  0001 C CNN
	1    10200 1000
	1    0    0    -1  
$EndComp
Wire Wire Line
	10300 900  10200 900 
Wire Wire Line
	10300 1000 10200 1000
$Comp
L Connector_Generic:Conn_02x20_Odd_Even J1
U 1 1 6195B1C1
P 1350 1800
F 0 "J1" H 1400 3000 50  0000 C CNN
F 1 "GPIO input" H 1450 2900 50  0000 C CNN
F 2 "Connector_PinHeader_2.54mm:PinHeader_2x20_P2.54mm_Vertical" H 1350 1800 50  0001 C CNN
F 3 "~" H 1350 1800 50  0001 C CNN
	1    1350 1800
	1    0    0    -1  
$EndComp
$Comp
L power:+3.3V #PWR03
U 1 1 6196033A
P 1050 900
F 0 "#PWR03" H 1050 750 50  0001 C CNN
F 1 "+3.3V" V 1065 1028 50  0000 L CNN
F 2 "" H 1050 900 50  0001 C CNN
F 3 "" H 1050 900 50  0001 C CNN
	1    1050 900 
	0    -1   -1   0   
$EndComp
$Comp
L power:GND #PWR022
U 1 1 61963327
P 1850 2250
F 0 "#PWR022" H 1850 2000 50  0001 C CNN
F 1 "GND" V 1855 2122 50  0000 R CNN
F 2 "" H 1850 2250 50  0001 C CNN
F 3 "" H 1850 2250 50  0001 C CNN
	1    1850 2250
	0    -1   -1   0   
$EndComp
$Comp
L power:GND #PWR020
U 1 1 619645E9
P 1750 2450
F 0 "#PWR020" H 1750 2200 50  0001 C CNN
F 1 "GND" V 1755 2322 50  0000 R CNN
F 2 "" H 1750 2450 50  0001 C CNN
F 3 "" H 1750 2450 50  0001 C CNN
	1    1750 2450
	0    -1   -1   0   
$EndComp
$Comp
L power:GND #PWR019
U 1 1 61964FA6
P 1750 1800
F 0 "#PWR019" H 1750 1550 50  0001 C CNN
F 1 "GND" V 1755 1672 50  0000 R CNN
F 2 "" H 1750 1800 50  0001 C CNN
F 3 "" H 1750 1800 50  0001 C CNN
	1    1750 1800
	0    -1   -1   0   
$EndComp
$Comp
L power:GND #PWR01
U 1 1 61965B39
P 950 1300
F 0 "#PWR01" H 950 1050 50  0001 C CNN
F 1 "GND" V 955 1172 50  0000 R CNN
F 2 "" H 950 1300 50  0001 C CNN
F 3 "" H 950 1300 50  0001 C CNN
	1    950  1300
	0    1    1    0   
$EndComp
$Comp
L power:GND #PWR017
U 1 1 619667D6
P 1750 1100
F 0 "#PWR017" H 1750 850 50  0001 C CNN
F 1 "GND" V 1755 972 50  0000 R CNN
F 2 "" H 1750 1100 50  0001 C CNN
F 3 "" H 1750 1100 50  0001 C CNN
	1    1750 1100
	0    -1   -1   0   
$EndComp
$Comp
L power:GND #PWR018
U 1 1 61966D18
P 1750 1500
F 0 "#PWR018" H 1750 1250 50  0001 C CNN
F 1 "GND" V 1755 1372 50  0000 R CNN
F 2 "" H 1750 1500 50  0001 C CNN
F 3 "" H 1750 1500 50  0001 C CNN
	1    1750 1500
	0    -1   -1   0   
$EndComp
$Comp
L power:GND #PWR02
U 1 1 6196D2F5
P 1000 2050
F 0 "#PWR02" H 1000 1800 50  0001 C CNN
F 1 "GND" V 1000 1900 50  0000 R CNN
F 2 "" H 1000 2050 50  0001 C CNN
F 3 "" H 1000 2050 50  0001 C CNN
	1    1000 2050
	0    1    1    0   
$EndComp
$Comp
L power:GND #PWR05
U 1 1 6196DF50
P 1050 2800
F 0 "#PWR05" H 1050 2550 50  0001 C CNN
F 1 "GND" V 1055 2672 50  0000 R CNN
F 2 "" H 1050 2800 50  0001 C CNN
F 3 "" H 1050 2800 50  0001 C CNN
	1    1050 2800
	0    1    1    0   
$EndComp
Text Label 1050 1000 2    50   ~ 0
SDA
Text Label 1050 1100 2    50   ~ 0
SCL
Text Label 1750 1200 0    50   ~ 0
SERVO_TXD
Text Label 1750 1300 0    50   ~ 0
SERVO_RXD
Text Label 1750 1400 0    50   ~ 0
SERVO_RXEN
Text Label 1750 1600 0    50   ~ 0
SERVO_TXEN
Text Label 1750 1700 0    50   ~ 0
GPIO3_A6
Text Label 1750 1900 0    50   ~ 0
GPIO3_A7
Text Label 1750 2000 0    50   ~ 0
GPIO3_B0
Text Label 1750 2100 0    50   ~ 0
GPIO2_B4
Text Label 1750 2200 0    50   ~ 0
GPIO2_A5
Text Label 1750 2400 0    50   ~ 0
GPIO1_A6
Text Label 1750 2600 0    50   ~ 0
GPIO1_A5
Text Label 1750 2700 0    50   ~ 0
GPIO1_A4
Text Label 1750 2800 0    50   ~ 0
GPIO1_A3
Text Label 1050 1200 2    50   ~ 0
GPIO1_D4
Text Label 1050 1500 2    50   ~ 0
GPIO0_A0
Text Label 1050 1600 2    50   ~ 0
GPIO3_A4
Text Label 1050 1800 2    50   ~ 0
GPIO3_A1
Text Label 1050 1900 2    50   ~ 0
GPIO3_A2
Text Label 1050 2200 2    50   ~ 0
GPIO2_A4
Text Label 1050 2500 2    50   ~ 0
GPIO1_A0
Text Label 1050 2600 2    50   ~ 0
GPIO1_A1
Text Label 1050 2700 2    50   ~ 0
GPIO1_A2
$Comp
L power:+3.3V #PWR04
U 1 1 61975392
P 1050 1700
F 0 "#PWR04" H 1050 1550 50  0001 C CNN
F 1 "+3.3V" V 1065 1828 50  0000 L CNN
F 2 "" H 1050 1700 50  0001 C CNN
F 3 "" H 1050 1700 50  0001 C CNN
	1    1050 1700
	0    -1   -1   0   
$EndComp
Wire Wire Line
	1650 1100 1750 1100
Wire Wire Line
	1650 1200 1750 1200
Wire Wire Line
	1650 1300 1750 1300
Wire Wire Line
	1650 1400 1750 1400
Wire Wire Line
	1650 1500 1750 1500
Wire Wire Line
	1650 1600 1750 1600
Wire Wire Line
	1650 1700 1750 1700
Wire Wire Line
	1650 1800 1750 1800
Wire Wire Line
	1650 1900 1750 1900
Wire Wire Line
	1650 2000 1750 2000
Wire Wire Line
	1650 2100 1750 2100
Wire Wire Line
	1650 2200 1750 2200
Wire Wire Line
	1750 2250 1850 2250
Wire Wire Line
	1650 2400 1750 2400
Wire Wire Line
	1650 2500 1750 2500
Wire Wire Line
	1650 2600 1750 2600
Wire Wire Line
	1650 2700 1750 2700
Wire Wire Line
	1650 2800 1750 2800
Wire Wire Line
	1150 2800 1050 2800
Wire Wire Line
	1150 2700 1050 2700
Wire Wire Line
	1150 2600 1050 2600
Wire Wire Line
	1150 2500 1050 2500
Wire Wire Line
	1150 2400 1050 2400
Wire Wire Line
	1150 2300 1050 2300
Wire Wire Line
	1150 2200 1050 2200
Wire Wire Line
	1150 2100 1050 2100
Wire Wire Line
	1150 2000 1050 2000
Wire Wire Line
	1150 1900 1050 1900
Wire Wire Line
	1150 1800 1050 1800
Wire Wire Line
	1150 1700 1050 1700
Wire Wire Line
	1150 1600 1050 1600
Wire Wire Line
	1150 1500 1050 1500
Wire Wire Line
	1150 1400 1050 1400
Wire Wire Line
	1150 1200 1050 1200
Wire Wire Line
	1150 1100 1050 1100
Wire Wire Line
	1150 1000 1050 1000
Wire Wire Line
	1150 900  1050 900 
Text Label 1050 2000 2    50   ~ 0
GPIO3_A0
Wire Wire Line
	1050 2100 1050 2050
Wire Wire Line
	1050 2050 1000 2050
Wire Wire Line
	950  1300 1150 1300
Wire Wire Line
	1750 2500 1750 2450
Wire Wire Line
	1650 2300 1750 2300
Wire Wire Line
	1750 2300 1750 2250
$Comp
L power:PWR_FLAG #FLG01
U 1 1 619F8442
P 1150 800
F 0 "#FLG01" H 1150 875 50  0001 C CNN
F 1 "PWR_FLAG" V 1150 927 50  0000 L CNN
F 2 "" H 1150 800 50  0001 C CNN
F 3 "~" H 1150 800 50  0001 C CNN
	1    1150 800 
	0    -1   -1   0   
$EndComp
Wire Wire Line
	1150 800  1150 900 
Connection ~ 1150 900 
$Comp
L power:PWR_FLAG #FLG03
U 1 1 61A19DF1
P 10300 950
F 0 "#FLG03" H 10300 1025 50  0001 C CNN
F 1 "PWR_FLAG" V 10300 1077 50  0000 L CNN
F 2 "" H 10300 950 50  0001 C CNN
F 3 "~" H 10300 950 50  0001 C CNN
	1    10300 950 
	0    -1   -1   0   
$EndComp
Wire Wire Line
	10300 950  10300 1000
Connection ~ 10300 1000
Text Label 10200 800  2    50   ~ 0
BATT_INPUT
Wire Wire Line
	10200 800  10200 900 
$Comp
L power:GND #PWR011
U 1 1 61B32AE8
P 1550 8250
F 0 "#PWR011" H 1550 8000 50  0001 C CNN
F 1 "GND" H 1555 8077 50  0000 C CNN
F 2 "" H 1550 8250 50  0001 C CNN
F 3 "" H 1550 8250 50  0001 C CNN
	1    1550 8250
	1    0    0    -1  
$EndComp
NoConn ~ 1050 2300
NoConn ~ 1050 2400
NoConn ~ 1050 1400
$Comp
L Device:LED D1
U 1 1 61BAFF53
P 4250 3400
F 0 "D1" H 4243 3616 50  0000 C CNN
F 1 "Power on LED" H 4243 3525 50  0000 C CNN
F 2 "" H 4250 3400 50  0001 C CNN
F 3 "~" H 4250 3400 50  0001 C CNN
	1    4250 3400
	1    0    0    -1  
$EndComp
$Comp
L Device:LED D4
U 1 1 61BC110C
P 4250 4600
F 0 "D4" H 4243 4816 50  0000 C CNN
F 1 "Error LED" H 4243 4725 50  0000 C CNN
F 2 "" H 4250 4600 50  0001 C CNN
F 3 "~" H 4250 4600 50  0001 C CNN
	1    4250 4600
	1    0    0    -1  
$EndComp
$Comp
L 74xx:74LS126 U5
U 1 1 61A01C16
P 8200 10200
F 0 "U5" H 8200 10425 50  0000 C CNN
F 1 "74LS126" H 8200 10516 50  0000 C CNN
F 2 "" H 8200 10200 50  0001 C CNN
F 3 "http://www.ti.com/lit/gpn/sn74LS126" H 8200 10200 50  0001 C CNN
	1    8200 10200
	-1   0    0    1   
$EndComp
$Comp
L 74xx:74LS126 U5
U 2 1 61A0E29B
P 9550 10200
F 0 "U5" H 9550 10425 50  0000 C CNN
F 1 "74LS126" H 9550 10516 50  0000 C CNN
F 2 "" H 9550 10200 50  0001 C CNN
F 3 "http://www.ti.com/lit/gpn/sn74LS126" H 9550 10200 50  0001 C CNN
	2    9550 10200
	-1   0    0    1   
$EndComp
$Comp
L power:+5V #PWR047
U 1 1 61A3736B
P 8800 10900
F 0 "#PWR047" H 8800 10750 50  0001 C CNN
F 1 "+5V" H 8815 11073 50  0000 C CNN
F 2 "" H 8800 10900 50  0001 C CNN
F 3 "" H 8800 10900 50  0001 C CNN
	1    8800 10900
	-1   0    0    1   
$EndComp
$Comp
L Device:R_US R12
U 1 1 61A4D64A
P 8800 10750
F 0 "R12" H 8868 10796 50  0000 L CNN
F 1 "10K" H 8868 10705 50  0000 L CNN
F 2 "Resistor_SMD:R_0603_1608Metric" V 8840 10740 50  0001 C CNN
F 3 "~" H 8800 10750 50  0001 C CNN
	1    8800 10750
	1    0    0    -1  
$EndComp
Wire Wire Line
	8500 10200 8800 10200
Wire Wire Line
	8800 10600 8800 10200
Connection ~ 8800 10200
Wire Wire Line
	8800 10200 9250 10200
Text Label 8800 9950 0    50   ~ 0
SERVO_SERIAL
Wire Wire Line
	8800 9950 8800 10200
Text Label 7750 10200 2    50   ~ 0
SERVO_RXD
Text Label 8200 9850 2    50   ~ 0
SERVO_RXEN
Text Label 9550 9850 0    50   ~ 0
SERVO_TXEN
Text Label 9950 10200 0    50   ~ 0
SERVO_TXD
Wire Wire Line
	9950 10200 9850 10200
Wire Wire Line
	9550 9950 9550 9850
Wire Wire Line
	8200 9950 8200 9850
Wire Wire Line
	7900 10200 7750 10200
$Comp
L power:GND #PWR026
U 1 1 61AF75E8
P 3100 850
F 0 "#PWR026" H 3100 600 50  0001 C CNN
F 1 "GND" V 3105 722 50  0000 R CNN
F 2 "" H 3100 850 50  0001 C CNN
F 3 "" H 3100 850 50  0001 C CNN
	1    3100 850 
	0    1    1    0   
$EndComp
Text Label 3100 750  2    50   ~ 0
BATTERY_METERED
$Comp
L spider_lib:AOZ2255LQI-31 U4
U 1 1 6199FFEA
P 3750 9700
F 0 "U4" H 3250 9950 50  0000 C CNN
F 1 "AOZ2255LQI-31" H 3500 9850 50  0000 C CNN
F 2 "" H 3750 9700 50  0001 C CNN
F 3 "" H 3750 9700 50  0001 C CNN
	1    3750 9700
	1    0    0    -1  
$EndComp
$Comp
L Device:C_Small C4
U 1 1 619A36CA
P 2550 9700
F 0 "C4" V 2779 9700 50  0000 C CNN
F 1 "100pF" V 2688 9700 50  0000 C CNN
F 2 "" H 2550 9700 50  0001 C CNN
F 3 "~" H 2550 9700 50  0001 C CNN
	1    2550 9700
	0    -1   -1   0   
$EndComp
$Comp
L Device:R_US R5
U 1 1 619A5B2F
P 2800 9400
F 0 "R5" H 2732 9354 50  0000 R CNN
F 1 "RTON" H 2732 9445 50  0000 R CNN
F 2 "Resistor_SMD:R_0603_1608Metric" V 2840 9390 50  0001 C CNN
F 3 "~" H 2800 9400 50  0001 C CNN
	1    2800 9400
	-1   0    0    1   
$EndComp
$Comp
L Device:C_Small C1
U 1 1 619A8856
P 1300 10300
F 0 "C1" H 1392 10346 50  0000 L CNN
F 1 "22uF" H 1392 10255 50  0000 L CNN
F 2 "" H 1300 10300 50  0001 C CNN
F 3 "~" H 1300 10300 50  0001 C CNN
	1    1300 10300
	1    0    0    -1  
$EndComp
$Comp
L Device:C_Small C7
U 1 1 619AB75E
P 5850 9550
F 0 "C7" H 5942 9596 50  0000 L CNN
F 1 "150uF" H 5942 9505 50  0000 L CNN
F 2 "" H 5850 9550 50  0001 C CNN
F 3 "~" H 5850 9550 50  0001 C CNN
	1    5850 9550
	1    0    0    -1  
$EndComp
$Comp
L pspice:INDUCTOR L1
U 1 1 619AD03E
P 4900 9450
F 0 "L1" H 4900 9665 50  0000 C CNN
F 1 "0.68uH" H 4900 9550 50  0000 C CNN
F 2 "" H 4900 9450 50  0001 C CNN
F 3 "~" H 4900 9450 50  0001 C CNN
	1    4900 9450
	1    0    0    -1  
$EndComp
$Comp
L Device:C_Small C3
U 1 1 619B6963
P 2050 10700
F 0 "C3" V 1821 10700 50  0000 C CNN
F 1 "0.1uF" V 1912 10700 50  0000 C CNN
F 2 "" H 2050 10700 50  0001 C CNN
F 3 "~" H 2050 10700 50  0001 C CNN
	1    2050 10700
	1    0    0    -1  
$EndComp
$Comp
L power:GNDA #PWR024
U 1 1 619F321E
P 2450 9700
F 0 "#PWR024" H 2450 9450 50  0001 C CNN
F 1 "GNDA" V 2455 9573 50  0000 R CNN
F 2 "" H 2450 9700 50  0001 C CNN
F 3 "" H 2450 9700 50  0001 C CNN
	1    2450 9700
	0    1    1    0   
$EndComp
Wire Wire Line
	3050 9700 2800 9700
Wire Wire Line
	2800 9550 2800 9700
Connection ~ 2800 9700
Wire Wire Line
	2800 9700 2650 9700
Wire Wire Line
	2800 9250 1850 9250
Wire Wire Line
	1850 9250 1850 9900
Wire Wire Line
	1850 9900 2750 9900
$Comp
L power:+BATT #PWR06
U 1 1 61A073A3
P 1100 10200
F 0 "#PWR06" H 1100 10050 50  0001 C CNN
F 1 "+BATT" V 1115 10327 50  0000 L CNN
F 2 "" H 1100 10200 50  0001 C CNN
F 3 "" H 1100 10200 50  0001 C CNN
	1    1100 10200
	0    -1   -1   0   
$EndComp
Wire Wire Line
	1100 10200 1300 10200
Wire Wire Line
	2750 10200 2750 9900
Wire Wire Line
	2750 10200 3050 10200
Connection ~ 2750 9900
Wire Wire Line
	2750 9900 3050 9900
Connection ~ 1300 10200
Wire Wire Line
	1300 10200 2750 10200
Connection ~ 2750 10200
$Comp
L power:GNDA #PWR025
U 1 1 61A1F55B
P 2500 10300
F 0 "#PWR025" H 2500 10050 50  0001 C CNN
F 1 "GNDA" V 2505 10173 50  0000 R CNN
F 2 "" H 2500 10300 50  0001 C CNN
F 3 "" H 2500 10300 50  0001 C CNN
	1    2500 10300
	0    1    1    0   
$EndComp
$Comp
L Device:C_Small C5
U 1 1 61A21CA4
P 2600 10300
F 0 "C5" V 2371 10300 50  0000 C CNN
F 1 "Css" V 2462 10300 50  0000 C CNN
F 2 "" H 2600 10300 50  0001 C CNN
F 3 "~" H 2600 10300 50  0001 C CNN
	1    2600 10300
	0    1    1    0   
$EndComp
Wire Wire Line
	2700 10300 3050 10300
Wire Wire Line
	3050 10400 2050 10400
Text Label 1700 9400 2    50   ~ 0
REGULATOR_ENABLE
Wire Wire Line
	2050 10400 2050 10600
Wire Wire Line
	2050 10800 2050 11150
Wire Wire Line
	5150 9450 5850 9450
Wire Wire Line
	3800 9700 4000 9700
Wire Wire Line
	4000 9700 4000 9450
$Comp
L Device:C_Small C6
U 1 1 61A8B678
P 4100 10000
F 0 "C6" V 3871 10000 50  0000 C CNN
F 1 "4.7uF" V 3962 10000 50  0000 C CNN
F 2 "" H 4100 10000 50  0001 C CNN
F 3 "~" H 4100 10000 50  0001 C CNN
	1    4100 10000
	-1   0    0    1   
$EndComp
$Comp
L power:GNDA #PWR031
U 1 1 61A8E574
P 4100 10100
F 0 "#PWR031" H 4100 9850 50  0001 C CNN
F 1 "GNDA" V 4105 9973 50  0000 R CNN
F 2 "" H 4100 10100 50  0001 C CNN
F 3 "" H 4100 10100 50  0001 C CNN
	1    4100 10100
	1    0    0    -1  
$EndComp
$Comp
L power:-BATT #PWR08
U 1 1 61AE324C
P 1300 10400
F 0 "#PWR08" H 1300 10250 50  0001 C CNN
F 1 "-BATT" V 1315 10527 50  0000 L CNN
F 2 "" H 1300 10400 50  0001 C CNN
F 3 "" H 1300 10400 50  0001 C CNN
	1    1300 10400
	-1   0    0    1   
$EndComp
$Comp
L power:-BATT #PWR038
U 1 1 61AE6683
P 5850 9800
F 0 "#PWR038" H 5850 9650 50  0001 C CNN
F 1 "-BATT" V 5865 9927 50  0000 L CNN
F 2 "" H 5850 9800 50  0001 C CNN
F 3 "" H 5850 9800 50  0001 C CNN
	1    5850 9800
	0    1    1    0   
$EndComp
Wire Wire Line
	5850 9650 5850 9800
Wire Wire Line
	3050 10600 2950 10600
Wire Wire Line
	2300 10500 3050 10500
$Comp
L Device:R_US R10
U 1 1 61B7BAB4
P 5150 10050
F 0 "R10" H 5218 10096 50  0000 L CNN
F 1 "2200000" H 5218 10005 50  0000 L CNN
F 2 "Resistor_SMD:R_0603_1608Metric" V 5190 10040 50  0001 C CNN
F 3 "~" H 5150 10050 50  0001 C CNN
	1    5150 10050
	1    0    0    -1  
$EndComp
$Comp
L Device:R_US R11
U 1 1 61B7D716
P 5150 10450
F 0 "R11" H 5218 10496 50  0000 L CNN
F 1 "300000" H 5218 10405 50  0000 L CNN
F 2 "Resistor_SMD:R_0603_1608Metric" V 5190 10440 50  0001 C CNN
F 3 "~" H 5150 10450 50  0001 C CNN
	1    5150 10450
	1    0    0    -1  
$EndComp
$Comp
L power:GND #PWR037
U 1 1 61B8D7C0
P 5150 10600
F 0 "#PWR037" H 5150 10350 50  0001 C CNN
F 1 "GND" H 5155 10427 50  0000 C CNN
F 2 "" H 5150 10600 50  0001 C CNN
F 3 "" H 5150 10600 50  0001 C CNN
	1    5150 10600
	1    0    0    -1  
$EndComp
Wire Wire Line
	5150 10200 5150 10250
Connection ~ 5150 10250
Wire Wire Line
	5150 10250 5150 10300
$Comp
L power:GND #PWR032
U 1 1 61BC191E
P 4200 9800
F 0 "#PWR032" H 4200 9550 50  0001 C CNN
F 1 "GND" H 4205 9627 50  0000 C CNN
F 2 "" H 4200 9800 50  0001 C CNN
F 3 "" H 4200 9800 50  0001 C CNN
	1    4200 9800
	-1   0    0    1   
$EndComp
Wire Wire Line
	4200 9800 3800 9800
$Comp
L Sensor_Current:ACS711xEXLT-31AB U3
U 1 1 61BD4A1B
P 1650 5300
F 0 "U3" H 1500 6050 50  0000 C CNN
F 1 "‎ACS726LLFTR-40B-T" H 1650 5950 50  0000 C CNN
F 2 "Sensor_Current:Allegro_QFN-12-10-1EP_3x3mm_P0.5mm" H 2000 5250 50  0001 L CIN
F 3 "http://www.allegromicro.com/~/Media/Files/Datasheets/ACS711-Datasheet.ashx" H 1650 5300 50  0001 C CNN
	1    1650 5300
	1    0    0    -1  
$EndComp
$Comp
L power:GND #PWR012
U 1 1 61BD5B0C
P 1650 5850
F 0 "#PWR012" H 1650 5600 50  0001 C CNN
F 1 "GND" V 1650 5650 50  0000 C CNN
F 2 "" H 1650 5850 50  0001 C CNN
F 3 "" H 1650 5850 50  0001 C CNN
	1    1650 5850
	0    -1   -1   0   
$EndComp
NoConn ~ 1850 5700
NoConn ~ 1750 5700
NoConn ~ 1550 5700
NoConn ~ 1450 5700
Wire Wire Line
	1650 5700 1650 5850
Text Label 1150 5100 2    50   ~ 0
servo_power_raw
Text Label 1150 5400 2    50   ~ 0
servo_power
Wire Wire Line
	1250 5400 1150 5400
Wire Wire Line
	1250 5100 1150 5100
$Comp
L power:+5V #PWR021
U 1 1 61BF536E
P 1750 4850
F 0 "#PWR021" H 1750 4700 50  0001 C CNN
F 1 "+5V" H 1765 5023 50  0000 C CNN
F 2 "" H 1750 4850 50  0001 C CNN
F 3 "" H 1750 4850 50  0001 C CNN
	1    1750 4850
	0    1    1    0   
$EndComp
Wire Wire Line
	1750 4850 1650 4850
Wire Wire Line
	1650 4850 1650 4900
Text Label 2150 5300 0    50   ~ 0
CURRENT_SENSOR_READING
Wire Wire Line
	2050 5300 2150 5300
Wire Wire Line
	4000 9450 4650 9450
Wire Wire Line
	3800 9900 4100 9900
$Comp
L power:GNDA #PWR023
U 1 1 61E17948
P 2300 10500
F 0 "#PWR023" H 2300 10250 50  0001 C CNN
F 1 "GNDA" V 2305 10373 50  0000 R CNN
F 2 "" H 2300 10500 50  0001 C CNN
F 3 "" H 2300 10500 50  0001 C CNN
	1    2300 10500
	1    0    0    -1  
$EndComp
$Comp
L Device:R_US R2
U 1 1 61EA18FC
P 1500 9700
F 0 "R2" V 1705 9700 50  0000 C CNN
F 1 "10k" V 1614 9700 50  0000 C CNN
F 2 "Resistor_SMD:R_0603_1608Metric" V 1540 9690 50  0001 C CNN
F 3 "~" H 1500 9700 50  0001 C CNN
	1    1500 9700
	0    -1   -1   0   
$EndComp
$Comp
L power:GND #PWR07
U 1 1 61EA615E
P 1200 9700
F 0 "#PWR07" H 1200 9450 50  0001 C CNN
F 1 "GND" H 1205 9527 50  0000 C CNN
F 2 "" H 1200 9700 50  0001 C CNN
F 3 "" H 1200 9700 50  0001 C CNN
	1    1200 9700
	1    0    0    -1  
$EndComp
Wire Wire Line
	1700 9400 1700 9700
Wire Wire Line
	1650 9700 1700 9700
Connection ~ 1700 9700
Wire Wire Line
	1700 9700 1700 10100
Wire Wire Line
	1350 9700 1200 9700
Text Label 11250 5600 0    50   ~ 0
SDA
Text Label 11250 5700 0    50   ~ 0
SCL
Wire Wire Line
	5600 10250 5600 11100
Wire Wire Line
	5600 11100 2950 11100
Wire Wire Line
	2950 11100 2950 10600
Wire Wire Line
	5150 10250 5600 10250
Wire Wire Line
	2050 11150 550  11150
Wire Wire Line
	550  11150 550  9150
Wire Wire Line
	550  9150 4650 9150
Wire Wire Line
	4650 9150 4650 9450
Connection ~ 4650 9450
$Comp
L spider_lib:MXC6655XA U1
U 1 1 61D0F001
P 1100 3000
F 0 "U1" H 1075 2965 50  0000 C CNN
F 1 "MXC6655XA Accelerometer" H 1075 2874 50  0000 C CNN
F 2 "Package_LGA:LGA-12_2x2mm_P0.5mm" H 900 2950 50  0001 C CNN
F 3 "" H 900 2950 50  0001 C CNN
	1    1100 3000
	1    0    0    -1  
$EndComp
$Comp
L power:GND #PWR013
U 1 1 61D10E68
P 1700 3800
F 0 "#PWR013" H 1700 3550 50  0001 C CNN
F 1 "GND" V 1705 3672 50  0000 R CNN
F 2 "" H 1700 3800 50  0001 C CNN
F 3 "" H 1700 3800 50  0001 C CNN
	1    1700 3800
	0    -1   -1   0   
$EndComp
Text Label 1500 3300 0    50   ~ 0
SDA
Text Label 1500 3400 0    50   ~ 0
SCL
Wire Wire Line
	1400 3300 1500 3300
Wire Wire Line
	1500 3400 1400 3400
$Comp
L power:+3.3V #PWR014
U 1 1 61D2E4C3
P 1700 3900
F 0 "#PWR014" H 1700 3750 50  0001 C CNN
F 1 "+3.3V" V 1715 4028 50  0000 L CNN
F 2 "" H 1700 3900 50  0001 C CNN
F 3 "" H 1700 3900 50  0001 C CNN
	1    1700 3900
	0    1    1    0   
$EndComp
Text Label 1500 3500 0    50   ~ 0
ACCEL_INT
Text Label 11250 7200 0    50   ~ 0
ACCEL_INT
Wire Wire Line
	1400 3500 1500 3500
$Comp
L Device:C_Small C2
U 1 1 61D9D7CF
P 1400 4000
F 0 "C2" H 1492 4046 50  0000 L CNN
F 1 "4.7uF" H 1492 3955 50  0000 L CNN
F 2 "" H 1400 4000 50  0001 C CNN
F 3 "~" H 1400 4000 50  0001 C CNN
	1    1400 4000
	1    0    0    -1  
$EndComp
Wire Wire Line
	2200 3700 1700 3700
Wire Wire Line
	1700 3700 1700 3800
Wire Wire Line
	1400 3800 1700 3800
Connection ~ 1700 3800
Wire Wire Line
	1700 3900 1400 3900
Connection ~ 1400 3900
Text Label 11250 6300 0    50   ~ 0
TEMP_SENSOR
$Comp
L power:+3.3V #PWR09
U 1 1 61EAA75A
P 1550 6350
F 0 "#PWR09" H 1550 6200 50  0001 C CNN
F 1 "+3.3V" H 1565 6523 50  0000 C CNN
F 2 "" H 1550 6350 50  0001 C CNN
F 3 "" H 1550 6350 50  0001 C CNN
	1    1550 6350
	1    0    0    -1  
$EndComp
$Comp
L Device:R_US R1
U 1 1 61EAC16D
P 1200 6650
F 0 "R1" H 1268 6696 50  0000 L CNN
F 1 "2700" H 1268 6605 50  0000 L CNN
F 2 "Resistor_SMD:R_0603_1608Metric" V 1240 6640 50  0001 C CNN
F 3 "~" H 1200 6650 50  0001 C CNN
	1    1200 6650
	1    0    0    -1  
$EndComp
$Comp
L Device:R_US R3
U 1 1 61EADA3B
P 1550 6650
F 0 "R3" H 1618 6696 50  0000 L CNN
F 1 "2700" H 1618 6605 50  0000 L CNN
F 2 "Resistor_SMD:R_0603_1608Metric" V 1590 6640 50  0001 C CNN
F 3 "~" H 1550 6650 50  0001 C CNN
	1    1550 6650
	1    0    0    -1  
$EndComp
$Comp
L Device:R_US R4
U 1 1 61EB75BD
P 1900 6650
F 0 "R4" H 1968 6696 50  0000 L CNN
F 1 "2700" H 1968 6605 50  0000 L CNN
F 2 "Resistor_SMD:R_0603_1608Metric" V 1940 6640 50  0001 C CNN
F 3 "~" H 1900 6650 50  0001 C CNN
	1    1900 6650
	1    0    0    -1  
$EndComp
Wire Wire Line
	1550 6350 1550 6500
Wire Wire Line
	1900 6500 1550 6500
Connection ~ 1550 6500
Wire Wire Line
	1550 6500 1200 6500
Text Label 1200 6900 3    50   ~ 0
SDA
Text Label 1550 6900 3    50   ~ 0
SCL
Text Label 1900 6900 3    50   ~ 0
ACCEL_INT
Wire Wire Line
	1900 6800 1900 6900
Wire Wire Line
	1550 6800 1550 6900
Wire Wire Line
	1200 6800 1200 6900
$Comp
L power:GND #PWR056
U 1 1 61F12D5D
P 10000 7600
F 0 "#PWR056" H 10000 7350 50  0001 C CNN
F 1 "GND" V 10000 7400 50  0000 C CNN
F 2 "" H 10000 7600 50  0001 C CNN
F 3 "" H 10000 7600 50  0001 C CNN
	1    10000 7600
	0    1    1    0   
$EndComp
$Comp
L power:+5V #PWR055
U 1 1 61F30EB7
P 10000 7400
F 0 "#PWR055" H 10000 7250 50  0001 C CNN
F 1 "+5V" V 10000 7600 50  0000 C CNN
F 2 "" H 10000 7400 50  0001 C CNN
F 3 "" H 10000 7400 50  0001 C CNN
	1    10000 7400
	0    -1   -1   0   
$EndComp
Text Label 11250 6200 0    50   ~ 0
CURRENT_SENSOR_READING
Wire Wire Line
	3050 10100 1700 10100
$Comp
L Connector_Generic:Conn_01x02 J2
U 1 1 6213701D
P 3400 750
F 0 "J2" H 3480 742 50  0000 L CNN
F 1 "Leg 1 power" H 3480 651 50  0000 L CNN
F 2 "Connector_AMASS:AMASS_XT30U-F_1x02_P5.0mm_Vertical" H 3400 750 50  0001 C CNN
F 3 "~" H 3400 750 50  0001 C CNN
	1    3400 750 
	1    0    0    -1  
$EndComp
Wire Wire Line
	3100 750  3200 750 
Wire Wire Line
	3200 850  3100 850 
$Comp
L power:GND #PWR028
U 1 1 62168F6C
P 3100 1850
F 0 "#PWR028" H 3100 1600 50  0001 C CNN
F 1 "GND" V 3105 1722 50  0000 R CNN
F 2 "" H 3100 1850 50  0001 C CNN
F 3 "" H 3100 1850 50  0001 C CNN
	1    3100 1850
	0    1    1    0   
$EndComp
Text Label 3100 1750 2    50   ~ 0
BATTERY_METERED
$Comp
L Connector_Generic:Conn_01x02 J4
U 1 1 62168F86
P 3400 1750
F 0 "J4" H 3480 1742 50  0000 L CNN
F 1 "Leg 2 power" H 3480 1651 50  0000 L CNN
F 2 "Connector_AMASS:AMASS_XT30U-F_1x02_P5.0mm_Vertical" H 3400 1750 50  0001 C CNN
F 3 "~" H 3400 1750 50  0001 C CNN
	1    3400 1750
	1    0    0    -1  
$EndComp
Wire Wire Line
	3100 1750 3200 1750
Wire Wire Line
	3200 1850 3100 1850
$Comp
L power:GND #PWR033
U 1 1 6218990E
P 4950 900
F 0 "#PWR033" H 4950 650 50  0001 C CNN
F 1 "GND" V 4955 772 50  0000 R CNN
F 2 "" H 4950 900 50  0001 C CNN
F 3 "" H 4950 900 50  0001 C CNN
	1    4950 900 
	0    1    1    0   
$EndComp
Text Label 4950 800  2    50   ~ 0
BATTERY_METERED
$Comp
L Connector_Generic:Conn_01x02 J6
U 1 1 62189928
P 5250 800
F 0 "J6" H 5330 792 50  0000 L CNN
F 1 "Leg 3 power" H 5330 701 50  0000 L CNN
F 2 "Connector_AMASS:AMASS_XT30U-F_1x02_P5.0mm_Vertical" H 5250 800 50  0001 C CNN
F 3 "~" H 5250 800 50  0001 C CNN
	1    5250 800 
	1    0    0    -1  
$EndComp
Wire Wire Line
	4950 800  5050 800 
Wire Wire Line
	5050 900  4950 900 
$Comp
L power:GND #PWR035
U 1 1 62189930
P 4950 1850
F 0 "#PWR035" H 4950 1600 50  0001 C CNN
F 1 "GND" V 4955 1722 50  0000 R CNN
F 2 "" H 4950 1850 50  0001 C CNN
F 3 "" H 4950 1850 50  0001 C CNN
	1    4950 1850
	0    1    1    0   
$EndComp
Text Label 4950 1750 2    50   ~ 0
BATTERY_METERED
$Comp
L Connector_Generic:Conn_01x02 J8
U 1 1 6218994A
P 5250 1750
F 0 "J8" H 5330 1742 50  0000 L CNN
F 1 "Leg 4 power" H 5330 1651 50  0000 L CNN
F 2 "Connector_AMASS:AMASS_XT30U-F_1x02_P5.0mm_Vertical" H 5250 1750 50  0001 C CNN
F 3 "~" H 5250 1750 50  0001 C CNN
	1    5250 1750
	1    0    0    -1  
$EndComp
Wire Wire Line
	4950 1750 5050 1750
Wire Wire Line
	5050 1850 4950 1850
$Comp
L power:GND #PWR039
U 1 1 62192EF7
P 6800 900
F 0 "#PWR039" H 6800 650 50  0001 C CNN
F 1 "GND" V 6805 772 50  0000 R CNN
F 2 "" H 6800 900 50  0001 C CNN
F 3 "" H 6800 900 50  0001 C CNN
	1    6800 900 
	0    1    1    0   
$EndComp
Text Label 6800 800  2    50   ~ 0
BATTERY_METERED
$Comp
L Connector_Generic:Conn_01x02 J10
U 1 1 62192F11
P 7100 800
F 0 "J10" H 7180 792 50  0000 L CNN
F 1 "Leg 5 power" H 7180 701 50  0000 L CNN
F 2 "Connector_AMASS:AMASS_XT30U-F_1x02_P5.0mm_Vertical" H 7100 800 50  0001 C CNN
F 3 "~" H 7100 800 50  0001 C CNN
	1    7100 800 
	1    0    0    -1  
$EndComp
Wire Wire Line
	6800 800  6900 800 
Wire Wire Line
	6900 900  6800 900 
$Comp
L power:GND #PWR041
U 1 1 62192F19
P 6800 1850
F 0 "#PWR041" H 6800 1600 50  0001 C CNN
F 1 "GND" V 6805 1722 50  0000 R CNN
F 2 "" H 6800 1850 50  0001 C CNN
F 3 "" H 6800 1850 50  0001 C CNN
	1    6800 1850
	0    1    1    0   
$EndComp
Text Label 6800 1750 2    50   ~ 0
BATTERY_METERED
$Comp
L Connector_Generic:Conn_01x02 J12
U 1 1 62192F33
P 7100 1750
F 0 "J12" H 7180 1742 50  0000 L CNN
F 1 "Leg 6 power" H 7180 1651 50  0000 L CNN
F 2 "Connector_AMASS:AMASS_XT30U-F_1x02_P5.0mm_Vertical" H 7100 1750 50  0001 C CNN
F 3 "~" H 7100 1750 50  0001 C CNN
	1    7100 1750
	1    0    0    -1  
$EndComp
Wire Wire Line
	6800 1750 6900 1750
Wire Wire Line
	6900 1850 6800 1850
Wire Wire Line
	5850 9450 6300 9450
Connection ~ 5850 9450
$Comp
L Sensor_Temperature:MCP9700T-ETT U2
U 1 1 622F5475
P 1550 7950
F 0 "U2" H 1221 7996 50  0000 R CNN
F 1 "MCP9700T-ETT" H 1221 7905 50  0000 R CNN
F 2 "Package_TO_SOT_SMD:SOT-23" H 1550 7550 50  0001 C CNN
F 3 "http://ww1.microchip.com/downloads/en/DeviceDoc/21942e.pdf" H 1400 8200 50  0001 C CNN
	1    1550 7950
	1    0    0    -1  
$EndComp
$Comp
L power:+3.3V #PWR010
U 1 1 61B334B4
P 1550 7650
F 0 "#PWR010" H 1550 7500 50  0001 C CNN
F 1 "+3.3V" H 1565 7823 50  0000 C CNN
F 2 "" H 1550 7650 50  0001 C CNN
F 3 "" H 1550 7650 50  0001 C CNN
	1    1550 7650
	1    0    0    -1  
$EndComp
$Comp
L gamerscomplete:ATMEGA809-MU U6
U 1 1 6249E021
P 10650 5350
F 0 "U6" H 10625 5565 50  0000 C CNN
F 1 "ATMEGA809-MU" H 10625 5474 50  0000 C CNN
F 2 "Package_DFN_QFN:VQFN-48-1EP_7x7mm_P0.5mm_EP4.1x4.1mm" H 10450 4250 50  0001 C CNN
F 3 "" H 10450 4250 50  0001 C CNN
	1    10650 5350
	1    0    0    -1  
$EndComp
Wire Wire Line
	10100 7700 10100 7600
Wire Wire Line
	10100 7600 10100 7500
Connection ~ 10100 7600
Wire Wire Line
	10100 7400 10100 7300
Wire Wire Line
	11150 7200 11250 7200
Wire Wire Line
	11250 6300 11150 6300
Wire Wire Line
	11150 6200 11250 6200
Wire Wire Line
	11250 5700 11150 5700
Wire Wire Line
	11150 5600 11250 5600
Wire Wire Line
	10000 7400 10100 7400
Connection ~ 10100 7400
Wire Wire Line
	10100 7600 10000 7600
$Comp
L power:GND #PWR043
U 1 1 625FCB88
P 8600 900
F 0 "#PWR043" H 8600 650 50  0001 C CNN
F 1 "GND" V 8605 772 50  0000 R CNN
F 2 "" H 8600 900 50  0001 C CNN
F 3 "" H 8600 900 50  0001 C CNN
	1    8600 900 
	0    1    1    0   
$EndComp
Text Label 8600 800  2    50   ~ 0
BATTERY_METERED
$Comp
L Connector_Generic:Conn_01x02 J14
U 1 1 625FCBA2
P 8900 800
F 0 "J14" H 8980 792 50  0000 L CNN
F 1 "Leg 7 power" H 8980 701 50  0000 L CNN
F 2 "Connector_AMASS:AMASS_XT30U-F_1x02_P5.0mm_Vertical" H 8900 800 50  0001 C CNN
F 3 "~" H 8900 800 50  0001 C CNN
	1    8900 800 
	1    0    0    -1  
$EndComp
Wire Wire Line
	8600 800  8700 800 
Wire Wire Line
	8700 900  8600 900 
$Comp
L power:GND #PWR045
U 1 1 625FCBAA
P 8600 1850
F 0 "#PWR045" H 8600 1600 50  0001 C CNN
F 1 "GND" V 8605 1722 50  0000 R CNN
F 2 "" H 8600 1850 50  0001 C CNN
F 3 "" H 8600 1850 50  0001 C CNN
	1    8600 1850
	0    1    1    0   
$EndComp
Text Label 8600 1750 2    50   ~ 0
BATTERY_METERED
Text Label 8600 2150 2    50   ~ 0
SERVO_SERIAL
Text Label 8600 2250 2    50   ~ 0
SCL
Text Label 8600 2350 2    50   ~ 0
SDA
$Comp
L power:+5V #PWR046
U 1 1 625FCBB4
P 8600 2450
F 0 "#PWR046" H 8600 2300 50  0001 C CNN
F 1 "+5V" V 8615 2578 50  0000 L CNN
F 2 "" H 8600 2450 50  0001 C CNN
F 3 "" H 8600 2450 50  0001 C CNN
	1    8600 2450
	0    -1   -1   0   
$EndComp
Wire Wire Line
	8600 2150 8700 2150
Wire Wire Line
	8700 2250 8600 2250
Wire Wire Line
	8600 2350 8700 2350
Wire Wire Line
	8700 2450 8600 2450
$Comp
L Connector_Generic:Conn_01x02 J16
U 1 1 625FCBC4
P 8900 1750
F 0 "J16" H 8980 1742 50  0000 L CNN
F 1 "Leg 8 power" H 8980 1651 50  0000 L CNN
F 2 "Connector_AMASS:AMASS_XT30U-F_1x02_P5.0mm_Vertical" H 8900 1750 50  0001 C CNN
F 3 "~" H 8900 1750 50  0001 C CNN
	1    8900 1750
	1    0    0    -1  
$EndComp
Wire Wire Line
	8600 1750 8700 1750
Wire Wire Line
	8700 1850 8600 1850
Wire Wire Line
	1400 4100 2200 4100
Wire Wire Line
	2200 4100 2200 3700
$Comp
L Device:LED D2
U 1 1 62762DDF
P 4250 3800
F 0 "D2" H 4243 4016 50  0000 C CNN
F 1 "Overtemp LED" H 4243 3925 50  0000 C CNN
F 2 "" H 4250 3800 50  0001 C CNN
F 3 "~" H 4250 3800 50  0001 C CNN
	1    4250 3800
	1    0    0    -1  
$EndComp
$Comp
L Device:LED D3
U 1 1 627775A3
P 4250 4200
F 0 "D3" H 4243 4416 50  0000 C CNN
F 1 "Overcurrent LED" H 4243 4325 50  0000 C CNN
F 2 "" H 4250 4200 50  0001 C CNN
F 3 "~" H 4250 4200 50  0001 C CNN
	1    4250 4200
	1    0    0    -1  
$EndComp
$Comp
L Connector_Generic:Conn_01x04 J25
U 1 1 62883198
P 15600 1850
F 0 "J25" H 15680 1842 50  0000 L CNN
F 1 "Ext I2c 2" H 15680 1751 50  0000 L CNN
F 2 "Connector_PinHeader_2.54mm:PinHeader_1x04_P2.54mm_Vertical" H 15600 1850 50  0001 C CNN
F 3 "~" H 15600 1850 50  0001 C CNN
	1    15600 1850
	1    0    0    -1  
$EndComp
Text Label 15300 1750 2    50   ~ 0
SDA
Text Label 15300 1850 2    50   ~ 0
SCL
$Comp
L Device:Jumper_NC_Dual JP6
U 1 1 628831A0
P 15050 1600
F 0 "JP6" H 14600 1850 50  0000 L CNN
F 1 "Ext i2c 2 power selector" H 14600 1750 50  0000 L CNN
F 2 "Connector_PinHeader_2.54mm:PinHeader_1x03_P2.54mm_Vertical" H 15050 1600 50  0001 C CNN
F 3 "~" H 15050 1600 50  0001 C CNN
	1    15050 1600
	1    0    0    -1  
$EndComp
$Comp
L power:GND #PWR070
U 1 1 628831A6
P 15400 2050
F 0 "#PWR070" H 15400 1800 50  0001 C CNN
F 1 "GND" V 15400 1850 50  0000 C CNN
F 2 "" H 15400 2050 50  0001 C CNN
F 3 "" H 15400 2050 50  0001 C CNN
	1    15400 2050
	0    1    1    0   
$EndComp
$Comp
L power:+5V #PWR069
U 1 1 628831AD
P 15400 1600
F 0 "#PWR069" H 15400 1450 50  0001 C CNN
F 1 "+5V" V 15400 1700 50  0000 L CNN
F 2 "" H 15400 1600 50  0001 C CNN
F 3 "" H 15400 1600 50  0001 C CNN
	1    15400 1600
	0    1    1    0   
$EndComp
$Comp
L power:+3.3V #PWR062
U 1 1 628831B3
P 14700 1600
F 0 "#PWR062" H 14700 1450 50  0001 C CNN
F 1 "+3.3V" V 14700 1850 50  0000 C CNN
F 2 "" H 14700 1600 50  0001 C CNN
F 3 "" H 14700 1600 50  0001 C CNN
	1    14700 1600
	0    -1   -1   0   
$EndComp
Wire Wire Line
	14700 1600 14800 1600
Wire Wire Line
	15300 1600 15400 1600
Wire Wire Line
	15300 1750 15400 1750
Wire Wire Line
	15400 1850 15300 1850
$Comp
L Connector_Generic:Conn_01x06 J21
U 1 1 62A27D80
P 13950 1250
F 0 "J21" H 14030 1242 50  0000 L CNN
F 1 "Ext SPI 2" H 14030 1151 50  0000 L CNN
F 2 "Connector_PinHeader_2.54mm:PinHeader_1x06_P2.54mm_Vertical" H 13950 1250 50  0001 C CNN
F 3 "~" H 13950 1250 50  0001 C CNN
	1    13950 1250
	1    0    0    -1  
$EndComp
Text Label 13650 1050 2    50   ~ 0
MISO
Text Label 13650 1150 2    50   ~ 0
MOSI
Text Label 13650 1250 2    50   ~ 0
CS
Text Label 13650 1350 2    50   ~ 0
SCLK
$Comp
L Device:Jumper_NC_Dual JP2
U 1 1 62A2FE57
P 13400 850
F 0 "JP2" H 13000 1100 50  0000 L CNN
F 1 "Ext SPI power select 2" H 12950 1000 50  0000 L CNN
F 2 "Connector_PinHeader_2.54mm:PinHeader_1x03_P2.54mm_Vertical" H 13400 850 50  0001 C CNN
F 3 "~" H 13400 850 50  0001 C CNN
	1    13400 850 
	1    0    0    -1  
$EndComp
$Comp
L power:+5V #PWR057
U 1 1 62A2FE5E
P 13750 850
F 0 "#PWR057" H 13750 700 50  0001 C CNN
F 1 "+5V" V 13750 950 50  0000 L CNN
F 2 "" H 13750 850 50  0001 C CNN
F 3 "" H 13750 850 50  0001 C CNN
	1    13750 850 
	0    1    1    0   
$EndComp
$Comp
L power:+3.3V #PWR054
U 1 1 62A2FE64
P 13050 850
F 0 "#PWR054" H 13050 700 50  0001 C CNN
F 1 "+3.3V" V 13050 1100 50  0000 C CNN
F 2 "" H 13050 850 50  0001 C CNN
F 3 "" H 13050 850 50  0001 C CNN
	1    13050 850 
	0    -1   -1   0   
$EndComp
Wire Wire Line
	13050 850  13150 850 
Wire Wire Line
	13650 850  13750 850 
$Comp
L power:GND #PWR058
U 1 1 62A3E20A
P 13750 1550
F 0 "#PWR058" H 13750 1300 50  0001 C CNN
F 1 "GND" V 13750 1350 50  0000 C CNN
F 2 "" H 13750 1550 50  0001 C CNN
F 3 "" H 13750 1550 50  0001 C CNN
	1    13750 1550
	0    1    1    0   
$EndComp
Wire Wire Line
	13650 1350 13750 1350
Wire Wire Line
	13650 1250 13750 1250
Wire Wire Line
	13650 1150 13750 1150
Wire Wire Line
	13750 1050 13650 1050
$Comp
L power:GND #PWR065
U 1 1 62A7BDE0
P 15200 2850
F 0 "#PWR065" H 15200 2600 50  0001 C CNN
F 1 "GND" H 15205 2677 50  0000 C CNN
F 2 "" H 15200 2850 50  0001 C CNN
F 3 "" H 15200 2850 50  0001 C CNN
	1    15200 2850
	0    1    1    0   
$EndComp
Wire Wire Line
	15250 2850 15200 2850
$Comp
L Connector_Generic:Conn_01x02 J19
U 1 1 62ADE79C
P 10500 1500
F 0 "J19" H 10580 1492 50  0000 L CNN
F 1 "Raw battery input backup" H 10580 1401 50  0000 L CNN
F 2 "Connector_AMASS:AMASS_XT60-F_1x02_P7.20mm_Vertical" H 10500 1500 50  0001 C CNN
F 3 "~" H 10500 1500 50  0001 C CNN
	1    10500 1500
	1    0    0    -1  
$EndComp
$Comp
L power:GND #PWR049
U 1 1 62ADE7A2
P 10200 1600
F 0 "#PWR049" H 10200 1350 50  0001 C CNN
F 1 "GND" H 10205 1427 50  0000 C CNN
F 2 "" H 10200 1600 50  0001 C CNN
F 3 "" H 10200 1600 50  0001 C CNN
	1    10200 1600
	1    0    0    -1  
$EndComp
Wire Wire Line
	10300 1500 10200 1500
Wire Wire Line
	10300 1600 10200 1600
$Comp
L power:PWR_FLAG #FLG04
U 1 1 62ADE7AA
P 10300 1550
F 0 "#FLG04" H 10300 1625 50  0001 C CNN
F 1 "PWR_FLAG" V 10300 1677 50  0000 L CNN
F 2 "" H 10300 1550 50  0001 C CNN
F 3 "~" H 10300 1550 50  0001 C CNN
	1    10300 1550
	0    -1   -1   0   
$EndComp
Wire Wire Line
	10300 1550 10300 1600
Connection ~ 10300 1600
Text Label 10200 1400 2    50   ~ 0
BATT_INPUT
Wire Wire Line
	10200 1400 10200 1500
$Comp
L Connector_Generic:Conn_01x03 J22
U 1 1 62AFF0B9
P 15450 2750
F 0 "J22" H 15530 2792 50  0000 L CNN
F 1 "Ext Analog 1" H 15530 2701 50  0000 L CNN
F 2 "Connector_PinHeader_2.54mm:PinHeader_1x03_P2.54mm_Vertical" H 15450 2750 50  0001 C CNN
F 3 "~" H 15450 2750 50  0001 C CNN
	1    15450 2750
	1    0    0    -1  
$EndComp
$Comp
L Device:Jumper_NC_Dual JP3
U 1 1 62B043E9
P 14600 2450
F 0 "JP3" H 14200 2700 50  0000 L CNN
F 1 "Ext Analog power select 1" H 14200 2600 50  0000 L CNN
F 2 "Connector_PinHeader_2.54mm:PinHeader_1x03_P2.54mm_Vertical" H 14600 2450 50  0001 C CNN
F 3 "~" H 14600 2450 50  0001 C CNN
	1    14600 2450
	1    0    0    -1  
$EndComp
$Comp
L power:+5V #PWR063
U 1 1 62B043F0
P 14950 2450
F 0 "#PWR063" H 14950 2300 50  0001 C CNN
F 1 "+5V" V 14950 2550 50  0000 L CNN
F 2 "" H 14950 2450 50  0001 C CNN
F 3 "" H 14950 2450 50  0001 C CNN
	1    14950 2450
	0    1    1    0   
$EndComp
$Comp
L power:+3.3V #PWR059
U 1 1 62B043F6
P 14250 2450
F 0 "#PWR059" H 14250 2300 50  0001 C CNN
F 1 "+3.3V" V 14250 2700 50  0000 C CNN
F 2 "" H 14250 2450 50  0001 C CNN
F 3 "" H 14250 2450 50  0001 C CNN
	1    14250 2450
	0    -1   -1   0   
$EndComp
Wire Wire Line
	14250 2450 14350 2450
Wire Wire Line
	14850 2450 14950 2450
Text Label 15250 2650 2    50   ~ 0
EXT_ANALOG_1
Wire Wire Line
	15250 2750 14600 2750
Wire Wire Line
	14600 2750 14600 2550
$Comp
L power:GND #PWR066
U 1 1 62BC5B0A
P 15200 3600
F 0 "#PWR066" H 15200 3350 50  0001 C CNN
F 1 "GND" H 15205 3427 50  0000 C CNN
F 2 "" H 15200 3600 50  0001 C CNN
F 3 "" H 15200 3600 50  0001 C CNN
	1    15200 3600
	0    1    1    0   
$EndComp
Wire Wire Line
	15250 3600 15200 3600
$Comp
L Connector_Generic:Conn_01x03 J23
U 1 1 62BC5B11
P 15450 3500
F 0 "J23" H 15530 3542 50  0000 L CNN
F 1 "Ext Analog 2" H 15530 3451 50  0000 L CNN
F 2 "Connector_PinHeader_2.54mm:PinHeader_1x03_P2.54mm_Vertical" H 15450 3500 50  0001 C CNN
F 3 "~" H 15450 3500 50  0001 C CNN
	1    15450 3500
	1    0    0    -1  
$EndComp
$Comp
L Device:Jumper_NC_Dual JP4
U 1 1 62BC5B17
P 14600 3200
F 0 "JP4" H 14200 3450 50  0000 L CNN
F 1 "Ext Analog power select 2" H 14200 3350 50  0000 L CNN
F 2 "Connector_PinHeader_2.54mm:PinHeader_1x03_P2.54mm_Vertical" H 14600 3200 50  0001 C CNN
F 3 "~" H 14600 3200 50  0001 C CNN
	1    14600 3200
	1    0    0    -1  
$EndComp
$Comp
L power:+5V #PWR064
U 1 1 62BC5B1D
P 14950 3200
F 0 "#PWR064" H 14950 3050 50  0001 C CNN
F 1 "+5V" V 14950 3300 50  0000 L CNN
F 2 "" H 14950 3200 50  0001 C CNN
F 3 "" H 14950 3200 50  0001 C CNN
	1    14950 3200
	0    1    1    0   
$EndComp
$Comp
L power:+3.3V #PWR060
U 1 1 62BC5B23
P 14250 3200
F 0 "#PWR060" H 14250 3050 50  0001 C CNN
F 1 "+3.3V" V 14250 3450 50  0000 C CNN
F 2 "" H 14250 3200 50  0001 C CNN
F 3 "" H 14250 3200 50  0001 C CNN
	1    14250 3200
	0    -1   -1   0   
$EndComp
Wire Wire Line
	14250 3200 14350 3200
Wire Wire Line
	14850 3200 14950 3200
Text Label 15250 3400 2    50   ~ 0
EXT_ANALOG_2
Wire Wire Line
	15250 3500 14600 3500
Wire Wire Line
	14600 3500 14600 3300
Wire Wire Line
	15050 1950 15050 1700
Wire Wire Line
	15050 1950 15400 1950
$Comp
L Connector_Generic:Conn_01x04 J24
U 1 1 62C42E15
P 15600 1100
F 0 "J24" H 15680 1092 50  0000 L CNN
F 1 "Ext I2c 1" H 15680 1001 50  0000 L CNN
F 2 "Connector_PinHeader_2.54mm:PinHeader_1x04_P2.54mm_Vertical" H 15600 1100 50  0001 C CNN
F 3 "~" H 15600 1100 50  0001 C CNN
	1    15600 1100
	1    0    0    -1  
$EndComp
Text Label 15300 1000 2    50   ~ 0
SDA
Text Label 15300 1100 2    50   ~ 0
SCL
$Comp
L Device:Jumper_NC_Dual JP5
U 1 1 62C42E1D
P 15050 850
F 0 "JP5" H 14600 1100 50  0000 L CNN
F 1 "Ext i2c 1 power selector" H 14600 1000 50  0000 L CNN
F 2 "Connector_PinHeader_2.54mm:PinHeader_1x03_P2.54mm_Vertical" H 15050 850 50  0001 C CNN
F 3 "~" H 15050 850 50  0001 C CNN
	1    15050 850 
	1    0    0    -1  
$EndComp
$Comp
L power:GND #PWR068
U 1 1 62C42E23
P 15400 1300
F 0 "#PWR068" H 15400 1050 50  0001 C CNN
F 1 "GND" V 15400 1100 50  0000 C CNN
F 2 "" H 15400 1300 50  0001 C CNN
F 3 "" H 15400 1300 50  0001 C CNN
	1    15400 1300
	0    1    1    0   
$EndComp
$Comp
L power:+5V #PWR067
U 1 1 62C42E29
P 15400 850
F 0 "#PWR067" H 15400 700 50  0001 C CNN
F 1 "+5V" V 15400 950 50  0000 L CNN
F 2 "" H 15400 850 50  0001 C CNN
F 3 "" H 15400 850 50  0001 C CNN
	1    15400 850 
	0    1    1    0   
$EndComp
$Comp
L power:+3.3V #PWR061
U 1 1 62C42E2F
P 14700 850
F 0 "#PWR061" H 14700 700 50  0001 C CNN
F 1 "+3.3V" V 14700 1100 50  0000 C CNN
F 2 "" H 14700 850 50  0001 C CNN
F 3 "" H 14700 850 50  0001 C CNN
	1    14700 850 
	0    -1   -1   0   
$EndComp
Wire Wire Line
	14700 850  14800 850 
Wire Wire Line
	15300 850  15400 850 
Wire Wire Line
	15300 1000 15400 1000
Wire Wire Line
	15400 1100 15300 1100
Wire Wire Line
	15050 1200 15050 950 
Wire Wire Line
	15050 1200 15400 1200
Wire Wire Line
	13750 1450 13400 1450
Wire Wire Line
	13400 950  13400 1450
$Comp
L Connector_Generic:Conn_01x06 J20
U 1 1 62CD380E
P 12550 1250
F 0 "J20" H 12630 1242 50  0000 L CNN
F 1 "Ext SPI 1" H 12630 1151 50  0000 L CNN
F 2 "Connector_PinHeader_2.54mm:PinHeader_1x06_P2.54mm_Vertical" H 12550 1250 50  0001 C CNN
F 3 "~" H 12550 1250 50  0001 C CNN
	1    12550 1250
	1    0    0    -1  
$EndComp
Text Label 12250 1050 2    50   ~ 0
MISO
Text Label 12250 1150 2    50   ~ 0
MOSI
Text Label 12250 1250 2    50   ~ 0
CS
Text Label 12250 1350 2    50   ~ 0
SCLK
$Comp
L Device:Jumper_NC_Dual JP1
U 1 1 62CD3818
P 12000 850
F 0 "JP1" H 11600 1100 50  0000 L CNN
F 1 "Ext SPI power select 1" H 11550 1000 50  0000 L CNN
F 2 "Connector_PinHeader_2.54mm:PinHeader_1x03_P2.54mm_Vertical" H 12000 850 50  0001 C CNN
F 3 "~" H 12000 850 50  0001 C CNN
	1    12000 850 
	1    0    0    -1  
$EndComp
$Comp
L power:+5V #PWR052
U 1 1 62CD381E
P 12350 850
F 0 "#PWR052" H 12350 700 50  0001 C CNN
F 1 "+5V" V 12350 950 50  0000 L CNN
F 2 "" H 12350 850 50  0001 C CNN
F 3 "" H 12350 850 50  0001 C CNN
	1    12350 850 
	0    1    1    0   
$EndComp
$Comp
L power:+3.3V #PWR051
U 1 1 62CD3824
P 11650 850
F 0 "#PWR051" H 11650 700 50  0001 C CNN
F 1 "+3.3V" V 11650 1100 50  0000 C CNN
F 2 "" H 11650 850 50  0001 C CNN
F 3 "" H 11650 850 50  0001 C CNN
	1    11650 850 
	0    -1   -1   0   
$EndComp
Wire Wire Line
	11650 850  11750 850 
Wire Wire Line
	12250 850  12350 850 
$Comp
L power:GND #PWR053
U 1 1 62CD382C
P 12350 1550
F 0 "#PWR053" H 12350 1300 50  0001 C CNN
F 1 "GND" V 12350 1350 50  0000 C CNN
F 2 "" H 12350 1550 50  0001 C CNN
F 3 "" H 12350 1550 50  0001 C CNN
	1    12350 1550
	0    1    1    0   
$EndComp
Wire Wire Line
	12250 1350 12350 1350
Wire Wire Line
	12250 1250 12350 1250
Wire Wire Line
	12250 1150 12350 1150
Wire Wire Line
	12350 1050 12250 1050
Wire Wire Line
	12350 1450 12000 1450
Wire Wire Line
	12000 950  12000 1450
Text Label 11250 6800 0    50   ~ 0
EXT_ANALOG_1
Text Label 11250 6900 0    50   ~ 0
EXT_ANALOG_2
Wire Wire Line
	11250 6800 11150 6800
Wire Wire Line
	11150 6900 11250 6900
Text Label 11250 5800 0    50   ~ 0
MOSI
Text Label 11250 5900 0    50   ~ 0
MISO
Text Label 11250 6000 0    50   ~ 0
SCK
Text Label 11250 6100 0    50   ~ 0
SS
Wire Wire Line
	11250 6100 11150 6100
Wire Wire Line
	11150 6000 11250 6000
Wire Wire Line
	11250 5900 11150 5900
Wire Wire Line
	11250 5800 11150 5800
Text Label 2050 7950 0    50   ~ 0
TEMP_SENSOR
Wire Wire Line
	2050 7950 1950 7950
Text Label 11250 6400 0    50   ~ 0
BATTERY_VOLTAGE
$Comp
L Device:R_US R13
U 1 1 62F75E45
P 10850 10200
F 0 "R13" H 10918 10246 50  0000 L CNN
F 1 "R_US" H 10918 10155 50  0000 L CNN
F 2 "Resistor_SMD:R_0603_1608Metric" V 10890 10190 50  0001 C CNN
F 3 "~" H 10850 10200 50  0001 C CNN
	1    10850 10200
	1    0    0    -1  
$EndComp
$Comp
L Device:R_US R14
U 1 1 62F7AC99
P 10850 10500
F 0 "R14" H 10918 10546 50  0000 L CNN
F 1 "R_US" H 10918 10455 50  0000 L CNN
F 2 "Resistor_SMD:R_0603_1608Metric" V 10890 10490 50  0001 C CNN
F 3 "~" H 10850 10500 50  0001 C CNN
	1    10850 10500
	1    0    0    -1  
$EndComp
$Comp
L power:GND #PWR050
U 1 1 62F8B887
P 10850 10650
F 0 "#PWR050" H 10850 10400 50  0001 C CNN
F 1 "GND" H 10855 10477 50  0000 C CNN
F 2 "" H 10850 10650 50  0001 C CNN
F 3 "" H 10850 10650 50  0001 C CNN
	1    10850 10650
	1    0    0    -1  
$EndComp
Text Label 10850 10050 0    50   ~ 0
BATT_INPUT
Text Label 11250 10350 0    50   ~ 0
BATT_VOLTAGE
Wire Wire Line
	11250 10350 10850 10350
Connection ~ 10850 10350
$Comp
L power:GND #PWR030
U 1 1 6304C476
P 3700 3950
F 0 "#PWR030" H 3700 3700 50  0001 C CNN
F 1 "GND" V 3700 3750 50  0000 C CNN
F 2 "" H 3700 3950 50  0001 C CNN
F 3 "" H 3700 3950 50  0001 C CNN
	1    3700 3950
	0    1    1    0   
$EndComp
Wire Wire Line
	4100 4200 3700 4200
Wire Wire Line
	3700 4200 3700 3950
Wire Wire Line
	3700 3950 3700 3800
Wire Wire Line
	3700 3800 4100 3800
Connection ~ 3700 3950
Wire Wire Line
	4100 3400 3700 3400
Wire Wire Line
	3700 3400 3700 3800
Connection ~ 3700 3800
Wire Wire Line
	4100 4600 3700 4600
Wire Wire Line
	3700 4600 3700 4200
Connection ~ 3700 4200
$Comp
L Device:R_US R6
U 1 1 630B4049
P 4750 3400
F 0 "R6" V 4545 3400 50  0000 C CNN
F 1 "R_US" V 4636 3400 50  0000 C CNN
F 2 "Resistor_SMD:R_0603_1608Metric" V 4790 3390 50  0001 C CNN
F 3 "~" H 4750 3400 50  0001 C CNN
	1    4750 3400
	0    1    1    0   
$EndComp
$Comp
L Device:R_US R7
U 1 1 630B6231
P 4750 3800
F 0 "R7" V 4545 3800 50  0000 C CNN
F 1 "R_US" V 4636 3800 50  0000 C CNN
F 2 "Resistor_SMD:R_0603_1608Metric" V 4790 3790 50  0001 C CNN
F 3 "~" H 4750 3800 50  0001 C CNN
	1    4750 3800
	0    1    1    0   
$EndComp
$Comp
L Device:R_US R8
U 1 1 630C70A1
P 4750 4200
F 0 "R8" V 4545 4200 50  0000 C CNN
F 1 "R_US" V 4636 4200 50  0000 C CNN
F 2 "Resistor_SMD:R_0603_1608Metric" V 4790 4190 50  0001 C CNN
F 3 "~" H 4750 4200 50  0001 C CNN
	1    4750 4200
	0    1    1    0   
$EndComp
$Comp
L Device:R_US R9
U 1 1 630D7D11
P 4750 4600
F 0 "R9" V 4545 4600 50  0000 C CNN
F 1 "R_US" V 4636 4600 50  0000 C CNN
F 2 "Resistor_SMD:R_0603_1608Metric" V 4790 4590 50  0001 C CNN
F 3 "~" H 4750 4600 50  0001 C CNN
	1    4750 4600
	0    1    1    0   
$EndComp
Wire Wire Line
	4600 4200 4400 4200
Wire Wire Line
	4600 4600 4400 4600
Wire Wire Line
	4600 3800 4400 3800
Wire Wire Line
	4600 3400 4400 3400
$Comp
L Connector_Generic:Conn_01x05 J26
U 1 1 61B1A80F
P 8900 2250
F 0 "J26" H 8980 2292 50  0000 L CNN
F 1 "Leg 8 data" H 8980 2201 50  0000 L CNN
F 2 "" H 8900 2250 50  0001 C CNN
F 3 "~" H 8900 2250 50  0001 C CNN
	1    8900 2250
	1    0    0    -1  
$EndComp
Text Label 8600 2050 2    50   ~ 0
LEG8_INT
Wire Wire Line
	8600 2050 8700 2050
Text Label 6800 2150 2    50   ~ 0
SERVO_SERIAL
Text Label 6800 2250 2    50   ~ 0
SCL
Text Label 6800 2350 2    50   ~ 0
SDA
$Comp
L power:+5V #PWR0101
U 1 1 61B9E3D0
P 6800 2450
F 0 "#PWR0101" H 6800 2300 50  0001 C CNN
F 1 "+5V" V 6815 2578 50  0000 L CNN
F 2 "" H 6800 2450 50  0001 C CNN
F 3 "" H 6800 2450 50  0001 C CNN
	1    6800 2450
	0    -1   -1   0   
$EndComp
Wire Wire Line
	6800 2150 6900 2150
Wire Wire Line
	6900 2250 6800 2250
Wire Wire Line
	6800 2350 6900 2350
Wire Wire Line
	6900 2450 6800 2450
$Comp
L Connector_Generic:Conn_01x05 J15
U 1 1 61B9E3DA
P 7100 2250
F 0 "J15" H 7180 2292 50  0000 L CNN
F 1 "Leg 6 data" H 7180 2201 50  0000 L CNN
F 2 "" H 7100 2250 50  0001 C CNN
F 3 "~" H 7100 2250 50  0001 C CNN
	1    7100 2250
	1    0    0    -1  
$EndComp
Text Label 6800 2050 2    50   ~ 0
LEG6_INT
Wire Wire Line
	6800 2050 6900 2050
Text Label 4950 1200 2    50   ~ 0
SERVO_SERIAL
Text Label 4950 1300 2    50   ~ 0
SCL
Text Label 4950 1400 2    50   ~ 0
SDA
$Comp
L power:+5V #PWR0102
U 1 1 61BB20AC
P 4950 1500
F 0 "#PWR0102" H 4950 1350 50  0001 C CNN
F 1 "+5V" V 4965 1628 50  0000 L CNN
F 2 "" H 4950 1500 50  0001 C CNN
F 3 "" H 4950 1500 50  0001 C CNN
	1    4950 1500
	0    -1   -1   0   
$EndComp
Wire Wire Line
	4950 1200 5050 1200
Wire Wire Line
	5050 1300 4950 1300
Wire Wire Line
	4950 1400 5050 1400
Wire Wire Line
	5050 1500 4950 1500
$Comp
L Connector_Generic:Conn_01x05 J9
U 1 1 61BB20B6
P 5250 1300
F 0 "J9" H 5330 1342 50  0000 L CNN
F 1 "Leg 3 data" H 5330 1251 50  0000 L CNN
F 2 "" H 5250 1300 50  0001 C CNN
F 3 "~" H 5250 1300 50  0001 C CNN
	1    5250 1300
	1    0    0    -1  
$EndComp
Text Label 4950 1100 2    50   ~ 0
LEG3_INT
Wire Wire Line
	4950 1100 5050 1100
Text Label 8600 1200 2    50   ~ 0
SERVO_SERIAL
Text Label 8600 1300 2    50   ~ 0
SCL
Text Label 8600 1400 2    50   ~ 0
SDA
$Comp
L power:+5V #PWR0103
U 1 1 61BC6051
P 8600 1500
F 0 "#PWR0103" H 8600 1350 50  0001 C CNN
F 1 "+5V" V 8615 1628 50  0000 L CNN
F 2 "" H 8600 1500 50  0001 C CNN
F 3 "" H 8600 1500 50  0001 C CNN
	1    8600 1500
	0    -1   -1   0   
$EndComp
Wire Wire Line
	8600 1200 8700 1200
Wire Wire Line
	8700 1300 8600 1300
Wire Wire Line
	8600 1400 8700 1400
Wire Wire Line
	8700 1500 8600 1500
$Comp
L Connector_Generic:Conn_01x05 J17
U 1 1 61BC605B
P 8900 1300
F 0 "J17" H 8980 1342 50  0000 L CNN
F 1 "Leg 7 data" H 8980 1251 50  0000 L CNN
F 2 "" H 8900 1300 50  0001 C CNN
F 3 "~" H 8900 1300 50  0001 C CNN
	1    8900 1300
	1    0    0    -1  
$EndComp
Text Label 8600 1100 2    50   ~ 0
LEG7_INT
Wire Wire Line
	8600 1100 8700 1100
Text Label 6800 1200 2    50   ~ 0
SERVO_SERIAL
Text Label 6800 1300 2    50   ~ 0
SCL
Text Label 6800 1400 2    50   ~ 0
SDA
$Comp
L power:+5V #PWR0104
U 1 1 61BDAFF8
P 6800 1500
F 0 "#PWR0104" H 6800 1350 50  0001 C CNN
F 1 "+5V" V 6815 1628 50  0000 L CNN
F 2 "" H 6800 1500 50  0001 C CNN
F 3 "" H 6800 1500 50  0001 C CNN
	1    6800 1500
	0    -1   -1   0   
$EndComp
Wire Wire Line
	6800 1200 6900 1200
Wire Wire Line
	6900 1300 6800 1300
Wire Wire Line
	6800 1400 6900 1400
Wire Wire Line
	6900 1500 6800 1500
$Comp
L Connector_Generic:Conn_01x05 J13
U 1 1 61BDB002
P 7100 1300
F 0 "J13" H 7180 1342 50  0000 L CNN
F 1 "Leg 5 data" H 7180 1251 50  0000 L CNN
F 2 "" H 7100 1300 50  0001 C CNN
F 3 "~" H 7100 1300 50  0001 C CNN
	1    7100 1300
	1    0    0    -1  
$EndComp
Text Label 6800 1100 2    50   ~ 0
LEG5_INT
Wire Wire Line
	6800 1100 6900 1100
Text Label 4950 2150 2    50   ~ 0
SERVO_SERIAL
Text Label 4950 2250 2    50   ~ 0
SCL
Text Label 4950 2350 2    50   ~ 0
SDA
$Comp
L power:+5V #PWR0105
U 1 1 61BF0E19
P 4950 2450
F 0 "#PWR0105" H 4950 2300 50  0001 C CNN
F 1 "+5V" V 4965 2578 50  0000 L CNN
F 2 "" H 4950 2450 50  0001 C CNN
F 3 "" H 4950 2450 50  0001 C CNN
	1    4950 2450
	0    -1   -1   0   
$EndComp
Wire Wire Line
	4950 2150 5050 2150
Wire Wire Line
	5050 2250 4950 2250
Wire Wire Line
	4950 2350 5050 2350
Wire Wire Line
	5050 2450 4950 2450
$Comp
L Connector_Generic:Conn_01x05 J11
U 1 1 61BF0E23
P 5250 2250
F 0 "J11" H 5330 2292 50  0000 L CNN
F 1 "Leg 4 data" H 5330 2201 50  0000 L CNN
F 2 "" H 5250 2250 50  0001 C CNN
F 3 "~" H 5250 2250 50  0001 C CNN
	1    5250 2250
	1    0    0    -1  
$EndComp
Text Label 4950 2050 2    50   ~ 0
LEG4_INT
Wire Wire Line
	4950 2050 5050 2050
Text Label 3100 2150 2    50   ~ 0
SERVO_SERIAL
Text Label 3100 2250 2    50   ~ 0
SCL
Text Label 3100 2350 2    50   ~ 0
SDA
$Comp
L power:+5V #PWR0106
U 1 1 61C07A6B
P 3100 2450
F 0 "#PWR0106" H 3100 2300 50  0001 C CNN
F 1 "+5V" V 3115 2578 50  0000 L CNN
F 2 "" H 3100 2450 50  0001 C CNN
F 3 "" H 3100 2450 50  0001 C CNN
	1    3100 2450
	0    -1   -1   0   
$EndComp
Wire Wire Line
	3100 2150 3200 2150
Wire Wire Line
	3200 2250 3100 2250
Wire Wire Line
	3100 2350 3200 2350
Wire Wire Line
	3200 2450 3100 2450
$Comp
L Connector_Generic:Conn_01x05 J5
U 1 1 61C07A75
P 3400 2250
F 0 "J5" H 3480 2292 50  0000 L CNN
F 1 "Leg 2 data" H 3480 2201 50  0000 L CNN
F 2 "" H 3400 2250 50  0001 C CNN
F 3 "~" H 3400 2250 50  0001 C CNN
	1    3400 2250
	1    0    0    -1  
$EndComp
Text Label 3100 2050 2    50   ~ 0
LEG2_INT
Wire Wire Line
	3100 2050 3200 2050
Text Label 3100 1200 2    50   ~ 0
SERVO_SERIAL
Text Label 3100 1300 2    50   ~ 0
SCL
Text Label 3100 1400 2    50   ~ 0
SDA
$Comp
L power:+5V #PWR0107
U 1 1 61C1F712
P 3100 1500
F 0 "#PWR0107" H 3100 1350 50  0001 C CNN
F 1 "+5V" V 3115 1628 50  0000 L CNN
F 2 "" H 3100 1500 50  0001 C CNN
F 3 "" H 3100 1500 50  0001 C CNN
	1    3100 1500
	0    -1   -1   0   
$EndComp
Wire Wire Line
	3100 1200 3200 1200
Wire Wire Line
	3200 1300 3100 1300
Wire Wire Line
	3100 1400 3200 1400
Wire Wire Line
	3200 1500 3100 1500
$Comp
L Connector_Generic:Conn_01x05 J3
U 1 1 61C1F71C
P 3400 1300
F 0 "J3" H 3480 1342 50  0000 L CNN
F 1 "Leg 1 data" H 3480 1251 50  0000 L CNN
F 2 "" H 3400 1300 50  0001 C CNN
F 3 "~" H 3400 1300 50  0001 C CNN
	1    3400 1300
	1    0    0    -1  
$EndComp
Text Label 3100 1100 2    50   ~ 0
LEG1_INT
Wire Wire Line
	3100 1100 3200 1100
Text Label 10000 5400 2    50   ~ 0
LEG1_INT
Text Label 10000 5500 2    50   ~ 0
LEG2_INT
Text Label 10000 5600 2    50   ~ 0
LEG3_INT
Text Label 10000 5700 2    50   ~ 0
LEG4_INT
Text Label 10000 5800 2    50   ~ 0
LEG5_INT
Text Label 10000 5900 2    50   ~ 0
LEG6_INT
Text Label 10000 6000 2    50   ~ 0
LEG7_INT
Text Label 10000 6100 2    50   ~ 0
LEG8_INT
Wire Wire Line
	10000 6100 10100 6100
Wire Wire Line
	10100 6000 10000 6000
Wire Wire Line
	10100 5800 10000 5800
Wire Wire Line
	10000 5700 10100 5700
Wire Wire Line
	10100 5600 10000 5600
Wire Wire Line
	10000 5500 10100 5500
Wire Wire Line
	10100 5400 10000 5400
Wire Wire Line
	10000 5900 10100 5900
Wire Wire Line
	11250 6400 11150 6400
$Comp
L Connector:Barrel_Jack J7
U 1 1 61F535F2
P 4950 5800
F 0 "J7" H 5007 6125 50  0000 C CNN
F 1 "SBC_POWER" H 5007 6034 50  0000 C CNN
F 2 "" H 5000 5760 50  0001 C CNN
F 3 "~" H 5000 5760 50  0001 C CNN
	1    4950 5800
	1    0    0    -1  
$EndComp
$Comp
L power:+5V #PWR0108
U 1 1 61F57A55
P 5400 5700
F 0 "#PWR0108" H 5400 5550 50  0001 C CNN
F 1 "+5V" H 5415 5873 50  0000 C CNN
F 2 "" H 5400 5700 50  0001 C CNN
F 3 "" H 5400 5700 50  0001 C CNN
	1    5400 5700
	1    0    0    -1  
$EndComp
$Comp
L power:GND #PWR0109
U 1 1 61F58066
P 5400 5900
F 0 "#PWR0109" H 5400 5650 50  0001 C CNN
F 1 "GND" H 5405 5727 50  0000 C CNN
F 2 "" H 5400 5900 50  0001 C CNN
F 3 "" H 5400 5900 50  0001 C CNN
	1    5400 5900
	1    0    0    -1  
$EndComp
Wire Wire Line
	5400 5900 5250 5900
Wire Wire Line
	5250 5700 5400 5700
Connection ~ 5150 9450
Wire Wire Line
	5150 9450 5150 9900
$Comp
L power:+5V #PWR0110
U 1 1 61FB211E
P 6300 9450
F 0 "#PWR0110" H 6300 9300 50  0001 C CNN
F 1 "+5V" H 6315 9623 50  0000 C CNN
F 2 "" H 6300 9450 50  0001 C CNN
F 3 "" H 6300 9450 50  0001 C CNN
	1    6300 9450
	1    0    0    -1  
$EndComp
NoConn ~ 1650 900 
NoConn ~ 1650 1000
$EndSCHEMATC
