(module QFN-22 (layer F.Cu) (tedit 61D56022)
  (fp_text reference REF** (at -0.07 -4.8) (layer F.SilkS)
    (effects (font (size 1 1) (thickness 0.15)))
  )
  (fp_text value QFN-22 (at 0.77 -3.21) (layer F.Fab)
    (effects (font (size 1 1) (thickness 0.15)))
  )
  (fp_line (start 2.05 -2.05) (end -2.05 -2.05) (layer F.SilkS) (width 0.12))
  (fp_line (start -2.05 2.05) (end -2.05 -2.05) (layer F.SilkS) (width 0.12))
  (fp_line (start -2.05 2.05) (end 2.05 2.05) (layer F.SilkS) (width 0.12))
  (fp_line (start 2.05 -2.05) (end 2.05 2.05) (layer F.SilkS) (width 0.12))
  (pad LX smd rect (at 0.9025 0.17) (size 0.855 3.1) (layers F.Cu F.Paste F.Mask))
  (pad 22 smd rect (at -1.25 -1.825) (size 0.25 0.45) (layers F.Cu F.Paste F.Mask))
  (pad 21 smd rect (at -0.25 -1.825) (size 0.25 0.45) (layers F.Cu F.Paste F.Mask))
  (pad 20 smd rect (at 0.25 -1.825) (size 0.25 0.45) (layers F.Cu F.Paste F.Mask))
  (pad 19 smd rect (at 0.75 -1.825) (size 0.25 0.45) (layers F.Cu F.Paste F.Mask))
  (pad 18 smd rect (at 1.25 -1.825) (size 0.25 0.45) (layers F.Cu F.Paste F.Mask)
    (zone_connect 2))
  (pad 17 smd rect (at 1.825 -1.255 270) (size 0.25 0.45) (layers F.Cu F.Paste F.Mask))
  (pad 16 smd rect (at 1.825 -0.755 270) (size 0.25 0.45) (layers F.Cu F.Paste F.Mask))
  (pad 15 smd rect (at 1.825 -0.255 270) (size 0.25 0.45) (layers F.Cu F.Paste F.Mask))
  (pad 14 smd rect (at 1.825 0.245 270) (size 0.25 0.45) (layers F.Cu F.Paste F.Mask))
  (pad 13 smd rect (at 1.825 0.745 270) (size 0.25 0.45) (layers F.Cu F.Paste F.Mask))
  (pad 12 smd rect (at 1.825 1.245 90) (size 0.25 0.45) (layers F.Cu F.Paste F.Mask))
  (pad 11 smd rect (at 1.25 1.885 180) (size 0.25 0.33) (layers F.Cu F.Paste F.Mask))
  (pad 10 smd rect (at 0.75 1.885 180) (size 0.25 0.33) (layers F.Cu F.Paste F.Mask))
  (pad 9 smd rect (at -0.25 1.885 180) (size 0.25 0.33) (layers F.Cu F.Paste F.Mask))
  (pad 8 smd rect (at -0.75 1.885 180) (size 0.25 0.33) (layers F.Cu F.Paste F.Mask))
  (pad 7 smd rect (at -1.25 1.885 180) (size 0.25 0.33) (layers F.Cu F.Paste F.Mask))
  (pad 1 smd rect (at -1.825 -1.255 90) (size 0.25 0.45) (layers F.Cu F.Paste F.Mask))
  (pad 2 smd rect (at -1.825 -0.755 90) (size 0.25 0.45) (layers F.Cu F.Paste F.Mask))
  (pad 3 smd rect (at -1.825 -0.255 90) (size 0.25 0.45) (layers F.Cu F.Paste F.Mask))
  (pad 4 smd rect (at -1.825 0.245 90) (size 0.25 0.45) (layers F.Cu F.Paste F.Mask))
  (pad 5 smd rect (at -1.825 0.745 90) (size 0.25 0.45) (layers F.Cu F.Paste F.Mask))
  (pad 6 smd rect (at -1.825 1.245 90) (size 0.25 0.45) (layers F.Cu F.Paste F.Mask))
  (pad IN smd custom (at -0.7275 0.17 180) (size 1 1) (layers F.Cu F.Paste F.Mask)
    (zone_connect 2)
    (options (clearance outline) (anchor rect))
    (primitives
      (gr_poly (pts
         (xy -0.6025 -1.55) (xy -0.6025 1.55) (xy 0.4775 1.55) (xy 0.6025 1.25) (xy 0.6025 -1.55)
) (width 0))
    ))
)
