(module SM2518-R68MHF_inductor (layer F.Cu) (tedit 61BA41E3)
  (fp_text reference REF** (at -1.52 -6.4) (layer F.SilkS)
    (effects (font (size 1 1) (thickness 0.15)))
  )
  (fp_text value SM2518-R68MHF_inductor (at -0.09 -4.61) (layer F.Fab)
    (effects (font (size 1 1) (thickness 0.15)))
  )
  (fp_line (start 3.43 3.235) (end -3.43 3.235) (layer F.SilkS) (width 0.12))
  (fp_line (start 3.43 3.235) (end 3.43 -3.235) (layer F.SilkS) (width 0.12))
  (fp_line (start -3.43 -3.235) (end 3.43 -3.235) (layer F.SilkS) (width 0.12))
  (fp_line (start -3.43 -3.235) (end -3.43 3.235) (layer F.SilkS) (width 0.12))
  (pad 1 smd rect (at -2.77 0) (size 1.83 3.43) (layers F.Cu F.Paste F.Mask))
  (pad 2 smd rect (at 2.77 0) (size 1.83 3.43) (layers F.Cu F.Paste F.Mask))
)
