EESchema Schematic File Version 4
EELAYER 30 0
EELAYER END
$Descr A4 11693 8268
encoding utf-8
Sheet 1 1
Title ""
Date ""
Rev ""
Comp ""
Comment1 ""
Comment2 ""
Comment3 ""
Comment4 ""
$EndDescr
$Comp
L Connector_Generic:Conn_01x04 J?
U 1 1 618FA32B
P 1400 1050
F 0 "J?" H 1480 1042 50  0000 L CNN
F 1 "Joystick_1_xy" H 1480 951 50  0000 L CNN
F 2 "" H 1400 1050 50  0001 C CNN
F 3 "~" H 1400 1050 50  0001 C CNN
	1    1400 1050
	1    0    0    -1  
$EndComp
$Comp
L Connector_Generic:Conn_01x04 J?
U 1 1 618FBCF6
P 2800 1050
F 0 "J?" H 2880 1042 50  0000 L CNN
F 1 "Joystick_2_xy" H 2880 951 50  0000 L CNN
F 2 "" H 2800 1050 50  0001 C CNN
F 3 "~" H 2800 1050 50  0001 C CNN
	1    2800 1050
	1    0    0    -1  
$EndComp
$Comp
L Connector_Generic:Conn_01x05 J?
U 1 1 618FBF15
P 1400 1700
F 0 "J?" H 1480 1742 50  0000 L CNN
F 1 "Joystick_1_Z" H 1480 1651 50  0000 L CNN
F 2 "" H 1400 1700 50  0001 C CNN
F 3 "~" H 1400 1700 50  0001 C CNN
	1    1400 1700
	1    0    0    -1  
$EndComp
$Comp
L Connector_Generic:Conn_01x05 J?
U 1 1 618FD7BB
P 2800 1700
F 0 "J?" H 2880 1742 50  0000 L CNN
F 1 "Joystick_2_z" H 2880 1651 50  0000 L CNN
F 2 "" H 2800 1700 50  0001 C CNN
F 3 "~" H 2800 1700 50  0001 C CNN
	1    2800 1700
	1    0    0    -1  
$EndComp
$Comp
L power:+BATT #PWR?
U 1 1 620D8231
P 6000 7550
F 0 "#PWR?" H 6000 7400 50  0001 C CNN
F 1 "+BATT" V 6000 7800 50  0000 C CNN
F 2 "" H 6000 7550 50  0001 C CNN
F 3 "" H 6000 7550 50  0001 C CNN
	1    6000 7550
	0    -1   -1   0   
$EndComp
$Comp
L power:-BATT #PWR?
U 1 1 620D8AE4
P 6000 7650
F 0 "#PWR?" H 6000 7500 50  0001 C CNN
F 1 "-BATT" V 6015 7777 50  0000 L CNN
F 2 "" H 6000 7650 50  0001 C CNN
F 3 "" H 6000 7650 50  0001 C CNN
	1    6000 7650
	0    -1   -1   0   
$EndComp
Text Label 1100 1150 2    50   ~ 0
J1_X
Text Label 1100 1250 2    50   ~ 0
J1_Y
Text Label 2500 1250 2    50   ~ 0
J2_Y
Text Label 2500 1150 2    50   ~ 0
J2_X
$Comp
L power:+5V #PWR?
U 1 1 620E8ACF
P 2500 950
F 0 "#PWR?" H 2500 800 50  0001 C CNN
F 1 "+5V" V 2515 1078 50  0000 L CNN
F 2 "" H 2500 950 50  0001 C CNN
F 3 "" H 2500 950 50  0001 C CNN
	1    2500 950 
	0    -1   -1   0   
$EndComp
$Comp
L power:+5V #PWR?
U 1 1 620EAC87
P 1100 1500
F 0 "#PWR?" H 1100 1350 50  0001 C CNN
F 1 "+5V" V 1115 1628 50  0000 L CNN
F 2 "" H 1100 1500 50  0001 C CNN
F 3 "" H 1100 1500 50  0001 C CNN
	1    1100 1500
	0    -1   -1   0   
$EndComp
$Comp
L power:+5V #PWR?
U 1 1 620EADB4
P 1100 950
F 0 "#PWR?" H 1100 800 50  0001 C CNN
F 1 "+5V" V 1115 1078 50  0000 L CNN
F 2 "" H 1100 950 50  0001 C CNN
F 3 "" H 1100 950 50  0001 C CNN
	1    1100 950 
	0    -1   -1   0   
$EndComp
$Comp
L power:GND #PWR?
U 1 1 620EBCE2
P 2500 1050
F 0 "#PWR?" H 2500 800 50  0001 C CNN
F 1 "GND" V 2500 850 50  0000 C CNN
F 2 "" H 2500 1050 50  0001 C CNN
F 3 "" H 2500 1050 50  0001 C CNN
	1    2500 1050
	0    1    1    0   
$EndComp
$Comp
L power:GND #PWR?
U 1 1 620EE111
P 1100 1050
F 0 "#PWR?" H 1100 800 50  0001 C CNN
F 1 "GND" V 1100 850 50  0000 C CNN
F 2 "" H 1100 1050 50  0001 C CNN
F 3 "" H 1100 1050 50  0001 C CNN
	1    1100 1050
	0    1    1    0   
$EndComp
$Comp
L power:GND #PWR?
U 1 1 620EE312
P 1100 1600
F 0 "#PWR?" H 1100 1350 50  0001 C CNN
F 1 "GND" V 1100 1400 50  0000 C CNN
F 2 "" H 1100 1600 50  0001 C CNN
F 3 "" H 1100 1600 50  0001 C CNN
	1    1100 1600
	0    1    1    0   
$EndComp
Text Label 1100 1700 2    50   ~ 0
J1_Z
Text Label 1100 1900 2    50   ~ 0
J1_BUTTON
$Comp
L power:+5V #PWR?
U 1 1 620F1098
P 1100 1800
F 0 "#PWR?" H 1100 1650 50  0001 C CNN
F 1 "+5V" V 1115 1928 50  0000 L CNN
F 2 "" H 1100 1800 50  0001 C CNN
F 3 "" H 1100 1800 50  0001 C CNN
	1    1100 1800
	0    -1   -1   0   
$EndComp
$Comp
L power:+5V #PWR?
U 1 1 620F12A9
P 2500 1800
F 0 "#PWR?" H 2500 1650 50  0001 C CNN
F 1 "+5V" V 2515 1928 50  0000 L CNN
F 2 "" H 2500 1800 50  0001 C CNN
F 3 "" H 2500 1800 50  0001 C CNN
	1    2500 1800
	0    -1   -1   0   
$EndComp
Text Label 2500 1700 2    50   ~ 0
J2_Z
Text Label 2500 1900 2    50   ~ 0
J2_BUTTON
$Comp
L Connector_Generic:Conn_01x02 J?
U 1 1 620F453C
P 6300 7550
F 0 "J?" H 6380 7542 50  0000 L CNN
F 1 "Battery input" H 6380 7451 50  0000 L CNN
F 2 "" H 6300 7550 50  0001 C CNN
F 3 "~" H 6300 7550 50  0001 C CNN
	1    6300 7550
	1    0    0    -1  
$EndComp
Wire Wire Line
	6100 7650 6000 7650
Wire Wire Line
	2500 1700 2600 1700
$Comp
L power:GND #PWR?
U 1 1 620EE4A2
P 2500 1600
F 0 "#PWR?" H 2500 1350 50  0001 C CNN
F 1 "GND" V 2500 1400 50  0000 C CNN
F 2 "" H 2500 1600 50  0001 C CNN
F 3 "" H 2500 1600 50  0001 C CNN
	1    2500 1600
	0    1    1    0   
$EndComp
$Comp
L power:+5V #PWR?
U 1 1 620EAAC9
P 2500 1500
F 0 "#PWR?" H 2500 1350 50  0001 C CNN
F 1 "+5V" V 2515 1628 50  0000 L CNN
F 2 "" H 2500 1500 50  0001 C CNN
F 3 "" H 2500 1500 50  0001 C CNN
	1    2500 1500
	0    -1   -1   0   
$EndComp
Text Label 2750 5850 0    50   ~ 0
J1_X
Text Label 2750 5950 0    50   ~ 0
J1_Y
Text Label 2750 6150 0    50   ~ 0
J2_X
Text Label 2750 6250 0    50   ~ 0
J2_Y
Text Label 2750 6050 0    50   ~ 0
J1_Z
Text Label 2750 5650 0    50   ~ 0
J1_BUTTON
Text Label 2750 6350 0    50   ~ 0
J2_Z
Text Label 2750 5750 0    50   ~ 0
J2_BUTTON
Text Label 2750 6450 0    50   ~ 0
BATTERY_VOLTAGE
Text Label 2750 6550 0    50   ~ 0
BATTERY_CURRENT
$Comp
L power:GND #PWR?
U 1 1 6211B45A
P 1500 7350
F 0 "#PWR?" H 1500 7100 50  0001 C CNN
F 1 "GND" V 1505 7222 50  0000 R CNN
F 2 "" H 1500 7350 50  0001 C CNN
F 3 "" H 1500 7350 50  0001 C CNN
	1    1500 7350
	0    1    1    0   
$EndComp
$Comp
L power:+5V #PWR?
U 1 1 6211C4AB
P 1500 7050
F 0 "#PWR?" H 1500 6900 50  0001 C CNN
F 1 "+5V" V 1515 7178 50  0000 L CNN
F 2 "" H 1500 7050 50  0001 C CNN
F 3 "" H 1500 7050 50  0001 C CNN
	1    1500 7050
	0    -1   -1   0   
$EndComp
Wire Wire Line
	2650 6250 2750 6250
Wire Wire Line
	2750 6150 2650 6150
Wire Wire Line
	2650 6050 2750 6050
Wire Wire Line
	2750 5950 2650 5950
Wire Wire Line
	2650 5850 2750 5850
Text Label 1500 6450 2    50   ~ 0
TEMP_SENSOR
$Comp
L gamerscomplete:BD50FC0FP-E2 U?
U 1 1 62123393
P 6200 6850
F 0 "U?" H 6200 7065 50  0000 C CNN
F 1 "BD50FC0FP-E2 5v regulator" H 6200 6974 50  0000 C CNN
F 2 "" H 6200 6850 50  0001 C CNN
F 3 "" H 6200 6850 50  0001 C CNN
	1    6200 6850
	1    0    0    -1  
$EndComp
Text Label 1500 6550 2    50   ~ 0
SCREEN_CURRENT
Text Label 5800 6900 2    50   ~ 0
SENSED_BATT
$Comp
L power:GND #PWR?
U 1 1 62128D4F
P 5800 7000
F 0 "#PWR?" H 5800 6750 50  0001 C CNN
F 1 "GND" V 5805 6872 50  0000 R CNN
F 2 "" H 5800 7000 50  0001 C CNN
F 3 "" H 5800 7000 50  0001 C CNN
	1    5800 7000
	0    1    1    0   
$EndComp
$Comp
L power:+5V #PWR?
U 1 1 62129804
P 6600 7000
F 0 "#PWR?" H 6600 6850 50  0001 C CNN
F 1 "+5V" V 6615 7128 50  0000 L CNN
F 2 "" H 6600 7000 50  0001 C CNN
F 3 "" H 6600 7000 50  0001 C CNN
	1    6600 7000
	0    1    1    0   
$EndComp
$Comp
L power:PWR_FLAG #FLG?
U 1 1 62129F80
P 6550 7050
F 0 "#FLG?" H 6550 7125 50  0001 C CNN
F 1 "PWR_FLAG" H 6550 7223 50  0000 C CNN
F 2 "" H 6550 7050 50  0001 C CNN
F 3 "~" H 6550 7050 50  0001 C CNN
	1    6550 7050
	-1   0    0    1   
$EndComp
Wire Wire Line
	6500 7000 6550 7000
Wire Wire Line
	6550 7050 6550 7000
Connection ~ 6550 7000
Wire Wire Line
	6550 7000 6600 7000
Wire Wire Line
	5800 7000 5900 7000
Wire Wire Line
	5800 6900 5900 6900
$Comp
L power:PWR_FLAG #FLG?
U 1 1 62137500
P 6050 7550
F 0 "#FLG?" H 6050 7625 50  0001 C CNN
F 1 "PWR_FLAG" H 6050 7723 50  0000 C CNN
F 2 "" H 6050 7550 50  0001 C CNN
F 3 "~" H 6050 7550 50  0001 C CNN
	1    6050 7550
	1    0    0    -1  
$EndComp
Wire Wire Line
	6100 7550 6050 7550
Wire Wire Line
	6000 7550 6050 7550
Connection ~ 6050 7550
$Comp
L Connector:USB_B_Micro J?
U 1 1 6215222C
P 8300 1050
F 0 "J?" H 8357 1517 50  0000 C CNN
F 1 "Screen power" H 8357 1426 50  0000 C CNN
F 2 "" H 8450 1000 50  0001 C CNN
F 3 "~" H 8450 1000 50  0001 C CNN
	1    8300 1050
	1    0    0    -1  
$EndComp
$Comp
L power:GND #PWR?
U 1 1 6215544C
P 8300 1550
F 0 "#PWR?" H 8300 1300 50  0001 C CNN
F 1 "GND" H 8305 1377 50  0000 C CNN
F 2 "" H 8300 1550 50  0001 C CNN
F 3 "" H 8300 1550 50  0001 C CNN
	1    8300 1550
	1    0    0    -1  
$EndComp
Wire Wire Line
	8700 850  8600 850 
Wire Wire Line
	8300 1550 8300 1450
$Comp
L Connector_Generic:Conn_02x20_Odd_Even J7
U 1 1 6195B1C1
P 10100 5150
F 0 "J7" H 10150 6350 50  0000 C CNN
F 1 "GPIO input" H 10200 6250 50  0000 C CNN
F 2 "" H 10100 5150 50  0001 C CNN
F 3 "~" H 10100 5150 50  0001 C CNN
	1    10100 5150
	1    0    0    -1  
$EndComp
$Comp
L power:+3.3V #PWR015
U 1 1 6196033A
P 9800 4250
F 0 "#PWR015" H 9800 4100 50  0001 C CNN
F 1 "+3.3V" V 9815 4378 50  0000 L CNN
F 2 "" H 9800 4250 50  0001 C CNN
F 3 "" H 9800 4250 50  0001 C CNN
	1    9800 4250
	0    -1   -1   0   
$EndComp
$Comp
L power:GND #PWR024
U 1 1 61963327
P 10600 5600
F 0 "#PWR024" H 10600 5350 50  0001 C CNN
F 1 "GND" V 10605 5472 50  0000 R CNN
F 2 "" H 10600 5600 50  0001 C CNN
F 3 "" H 10600 5600 50  0001 C CNN
	1    10600 5600
	0    -1   -1   0   
$EndComp
$Comp
L power:GND #PWR023
U 1 1 619645E9
P 10500 5800
F 0 "#PWR023" H 10500 5550 50  0001 C CNN
F 1 "GND" V 10505 5672 50  0000 R CNN
F 2 "" H 10500 5800 50  0001 C CNN
F 3 "" H 10500 5800 50  0001 C CNN
	1    10500 5800
	0    -1   -1   0   
$EndComp
$Comp
L power:GND #PWR022
U 1 1 61964FA6
P 10500 5150
F 0 "#PWR022" H 10500 4900 50  0001 C CNN
F 1 "GND" V 10505 5022 50  0000 R CNN
F 2 "" H 10500 5150 50  0001 C CNN
F 3 "" H 10500 5150 50  0001 C CNN
	1    10500 5150
	0    -1   -1   0   
$EndComp
$Comp
L power:GND #PWR013
U 1 1 61965B39
P 9800 4650
F 0 "#PWR013" H 9800 4400 50  0001 C CNN
F 1 "GND" V 9805 4522 50  0000 R CNN
F 2 "" H 9800 4650 50  0001 C CNN
F 3 "" H 9800 4650 50  0001 C CNN
	1    9800 4650
	0    1    1    0   
$EndComp
$Comp
L power:GND #PWR020
U 1 1 619667D6
P 10500 4450
F 0 "#PWR020" H 10500 4200 50  0001 C CNN
F 1 "GND" V 10505 4322 50  0000 R CNN
F 2 "" H 10500 4450 50  0001 C CNN
F 3 "" H 10500 4450 50  0001 C CNN
	1    10500 4450
	0    -1   -1   0   
$EndComp
$Comp
L power:GND #PWR021
U 1 1 61966D18
P 10500 4850
F 0 "#PWR021" H 10500 4600 50  0001 C CNN
F 1 "GND" V 10505 4722 50  0000 R CNN
F 2 "" H 10500 4850 50  0001 C CNN
F 3 "" H 10500 4850 50  0001 C CNN
	1    10500 4850
	0    -1   -1   0   
$EndComp
$Comp
L power:GND #PWR014
U 1 1 6196D2F5
P 9750 5400
F 0 "#PWR014" H 9750 5150 50  0001 C CNN
F 1 "GND" V 9750 5250 50  0000 R CNN
F 2 "" H 9750 5400 50  0001 C CNN
F 3 "" H 9750 5400 50  0001 C CNN
	1    9750 5400
	0    1    1    0   
$EndComp
$Comp
L power:GND #PWR017
U 1 1 6196DF50
P 9800 6150
F 0 "#PWR017" H 9800 5900 50  0001 C CNN
F 1 "GND" V 9805 6022 50  0000 R CNN
F 2 "" H 9800 6150 50  0001 C CNN
F 3 "" H 9800 6150 50  0001 C CNN
	1    9800 6150
	0    1    1    0   
$EndComp
Text Label 9800 4350 2    50   ~ 0
SDA
Text Label 9800 4450 2    50   ~ 0
SCL
Text Label 10500 4550 0    50   ~ 0
SERVO_TXD
Text Label 10500 4650 0    50   ~ 0
SERVO_RXD
Text Label 10500 4750 0    50   ~ 0
SERVO_RXEN
Text Label 10500 4950 0    50   ~ 0
SERVO_TXEN
Text Label 10500 5050 0    50   ~ 0
GPIO3_A6
Text Label 10500 5250 0    50   ~ 0
GPIO3_A7
Text Label 10500 5350 0    50   ~ 0
GPIO3_B0
Text Label 10500 5450 0    50   ~ 0
GPIO2_B4
Text Label 10500 5550 0    50   ~ 0
GPIO2_A5
Text Label 10500 5750 0    50   ~ 0
GPIO1_A6
Text Label 10500 5950 0    50   ~ 0
GPIO1_A5
Text Label 10500 6050 0    50   ~ 0
GPIO1_A4
Text Label 10500 6150 0    50   ~ 0
GPIO1_A3
Text Label 9800 4550 2    50   ~ 0
GPIO1_D4
Text Label 9800 4850 2    50   ~ 0
GPIO0_A0
Text Label 9800 4950 2    50   ~ 0
GPIO3_A4
Text Label 9800 5150 2    50   ~ 0
GPIO3_A1
Text Label 9800 5250 2    50   ~ 0
GPIO3_A2
Text Label 9800 5550 2    50   ~ 0
GPIO2_A4
Text Label 9800 5850 2    50   ~ 0
GPIO1_A0
Text Label 9800 5950 2    50   ~ 0
GPIO1_A1
Text Label 9800 6050 2    50   ~ 0
GPIO1_A2
$Comp
L power:+3.3V #PWR016
U 1 1 61975392
P 9800 5050
F 0 "#PWR016" H 9800 4900 50  0001 C CNN
F 1 "+3.3V" V 9815 5178 50  0000 L CNN
F 2 "" H 9800 5050 50  0001 C CNN
F 3 "" H 9800 5050 50  0001 C CNN
	1    9800 5050
	0    -1   -1   0   
$EndComp
Wire Wire Line
	10400 4450 10500 4450
Wire Wire Line
	10400 4550 10500 4550
Wire Wire Line
	10400 4650 10500 4650
Wire Wire Line
	10400 4750 10500 4750
Wire Wire Line
	10400 4850 10500 4850
Wire Wire Line
	10400 4950 10500 4950
Wire Wire Line
	10400 5050 10500 5050
Wire Wire Line
	10400 5150 10500 5150
Wire Wire Line
	10400 5250 10500 5250
Wire Wire Line
	10400 5350 10500 5350
Wire Wire Line
	10400 5450 10500 5450
Wire Wire Line
	10400 5550 10500 5550
Wire Wire Line
	10500 5600 10600 5600
Wire Wire Line
	10400 5750 10500 5750
Wire Wire Line
	10400 5850 10500 5850
Wire Wire Line
	10400 5950 10500 5950
Wire Wire Line
	10400 6050 10500 6050
Wire Wire Line
	10400 6150 10500 6150
Wire Wire Line
	9900 6150 9800 6150
Wire Wire Line
	9900 6050 9800 6050
Wire Wire Line
	9900 5950 9800 5950
Wire Wire Line
	9900 5850 9800 5850
Wire Wire Line
	9900 5550 9800 5550
Wire Wire Line
	9900 5450 9800 5450
Wire Wire Line
	9900 5350 9800 5350
Wire Wire Line
	9900 5250 9800 5250
Wire Wire Line
	9900 5150 9800 5150
Wire Wire Line
	9900 5050 9800 5050
Wire Wire Line
	9900 4950 9800 4950
Wire Wire Line
	9900 4850 9800 4850
Wire Wire Line
	9900 4550 9800 4550
Wire Wire Line
	9900 4450 9800 4450
Wire Wire Line
	9900 4350 9800 4350
Wire Wire Line
	9900 4250 9800 4250
Text Label 9800 5350 2    50   ~ 0
GPIO3_A0
Wire Wire Line
	9800 5450 9800 5400
Wire Wire Line
	9800 5400 9750 5400
Wire Wire Line
	10500 5850 10500 5800
Wire Wire Line
	10400 5650 10500 5650
Wire Wire Line
	10500 5650 10500 5600
$Comp
L power:PWR_FLAG #FLG01
U 1 1 619F8442
P 9900 4150
F 0 "#FLG01" H 9900 4225 50  0001 C CNN
F 1 "PWR_FLAG" V 9900 4277 50  0000 L CNN
F 2 "" H 9900 4150 50  0001 C CNN
F 3 "~" H 9900 4150 50  0001 C CNN
	1    9900 4150
	0    -1   -1   0   
$EndComp
Wire Wire Line
	9900 4150 9900 4250
Connection ~ 9900 4250
NoConn ~ 9900 5650
NoConn ~ 9900 5750
NoConn ~ 9900 4750
$Comp
L spider_lib:MXC6655XA U?
U 1 1 61D0F001
P 9800 700
F 0 "U?" H 9775 665 50  0000 C CNN
F 1 "MXC6655XA Accelerometer" H 9775 574 50  0000 C CNN
F 2 "" H 9600 650 50  0001 C CNN
F 3 "" H 9600 650 50  0001 C CNN
	1    9800 700 
	1    0    0    -1  
$EndComp
$Comp
L power:GND #PWR?
U 1 1 61D10E68
P 10400 1500
F 0 "#PWR?" H 10400 1250 50  0001 C CNN
F 1 "GND" V 10405 1372 50  0000 R CNN
F 2 "" H 10400 1500 50  0001 C CNN
F 3 "" H 10400 1500 50  0001 C CNN
	1    10400 1500
	0    -1   -1   0   
$EndComp
Text Label 10200 1000 0    50   ~ 0
SDA
Text Label 10200 1100 0    50   ~ 0
SCL
Wire Wire Line
	10100 1000 10200 1000
Wire Wire Line
	10200 1100 10100 1100
$Comp
L power:+3.3V #PWR?
U 1 1 61D2E4C3
P 10400 1600
F 0 "#PWR?" H 10400 1450 50  0001 C CNN
F 1 "+3.3V" V 10415 1728 50  0000 L CNN
F 2 "" H 10400 1600 50  0001 C CNN
F 3 "" H 10400 1600 50  0001 C CNN
	1    10400 1600
	0    1    1    0   
$EndComp
Text Label 10200 1200 0    50   ~ 0
ACCEL_INT
Wire Wire Line
	10100 1200 10200 1200
$Comp
L Device:C_Small C?
U 1 1 61D9D7CF
P 10100 1700
F 0 "C?" H 10192 1746 50  0000 L CNN
F 1 "4.7uF" H 10192 1655 50  0000 L CNN
F 2 "" H 10100 1700 50  0001 C CNN
F 3 "~" H 10100 1700 50  0001 C CNN
	1    10100 1700
	1    0    0    -1  
$EndComp
Wire Wire Line
	10100 1800 10100 1950
Wire Wire Line
	10100 1950 10900 1950
Wire Wire Line
	10900 1950 10900 1400
Wire Wire Line
	10900 1400 10400 1400
Wire Wire Line
	10400 1400 10400 1500
Wire Wire Line
	10100 1500 10400 1500
Connection ~ 10400 1500
Wire Wire Line
	10400 1600 10100 1600
Connection ~ 10100 1600
Text Label 2750 5250 0    50   ~ 0
SDA
Text Label 2750 5350 0    50   ~ 0
SCL
NoConn ~ 10400 4250
NoConn ~ 10400 4350
Wire Wire Line
	9800 4650 9900 4650
$Comp
L power:+5V #PWR?
U 1 1 622A10E4
P 7400 850
F 0 "#PWR?" H 7400 700 50  0001 C CNN
F 1 "+5V" H 7415 1023 50  0000 C CNN
F 2 "" H 7400 850 50  0001 C CNN
F 3 "" H 7400 850 50  0001 C CNN
	1    7400 850 
	1    0    0    -1  
$EndComp
Text Label 7600 1250 3    50   ~ 0
SCL
$Comp
L Device:R_US R?
U 1 1 622A1D84
P 7200 1100
F 0 "R?" H 7268 1146 50  0000 L CNN
F 1 "2.7k" H 7268 1055 50  0000 L CNN
F 2 "" V 7240 1090 50  0001 C CNN
F 3 "~" H 7200 1100 50  0001 C CNN
	1    7200 1100
	1    0    0    -1  
$EndComp
$Comp
L Device:R_US R?
U 1 1 622A338F
P 7600 1100
F 0 "R?" H 7668 1146 50  0000 L CNN
F 1 "2.7k" H 7668 1055 50  0000 L CNN
F 2 "" V 7640 1090 50  0001 C CNN
F 3 "~" H 7600 1100 50  0001 C CNN
	1    7600 1100
	1    0    0    -1  
$EndComp
Wire Wire Line
	7600 950  7400 950 
Wire Wire Line
	7400 850  7400 950 
Connection ~ 7400 950 
Wire Wire Line
	7400 950  7200 950 
Text Label 2750 5550 0    50   ~ 0
FAN_CONTROL
Text Label 7200 1250 3    50   ~ 0
SDA
Text Label 2750 5450 0    50   ~ 0
VIBRATOR_CONTROL
$Comp
L Device:R_US R?
U 1 1 6230DA74
P 6600 950
F 0 "R?" H 6668 996 50  0000 L CNN
F 1 "R_US" H 6668 905 50  0000 L CNN
F 2 "" V 6640 940 50  0001 C CNN
F 3 "~" H 6600 950 50  0001 C CNN
	1    6600 950 
	1    0    0    -1  
$EndComp
$Comp
L Device:R_US R?
U 1 1 6230FC7F
P 6600 1250
F 0 "R?" H 6668 1296 50  0000 L CNN
F 1 "R_US" H 6668 1205 50  0000 L CNN
F 2 "" V 6640 1240 50  0001 C CNN
F 3 "~" H 6600 1250 50  0001 C CNN
	1    6600 1250
	1    0    0    -1  
$EndComp
$Comp
L power:+BATT #PWR?
U 1 1 62323440
P 6600 800
F 0 "#PWR?" H 6600 650 50  0001 C CNN
F 1 "+BATT" H 6615 973 50  0000 C CNN
F 2 "" H 6600 800 50  0001 C CNN
F 3 "" H 6600 800 50  0001 C CNN
	1    6600 800 
	1    0    0    -1  
$EndComp
$Comp
L power:GND #PWR?
U 1 1 62324DB4
P 6600 1400
F 0 "#PWR?" H 6600 1150 50  0001 C CNN
F 1 "GND" H 6605 1227 50  0000 C CNN
F 2 "" H 6600 1400 50  0001 C CNN
F 3 "" H 6600 1400 50  0001 C CNN
	1    6600 1400
	1    0    0    -1  
$EndComp
Text Label 6450 1100 2    50   ~ 0
BATTERY_VOLTAGE
Wire Wire Line
	6450 1100 6600 1100
Connection ~ 6600 1100
$Comp
L power:+5V #PWR?
U 1 1 6236E4D8
P 8700 850
F 0 "#PWR?" H 8700 700 50  0001 C CNN
F 1 "+5V" V 8715 978 50  0000 L CNN
F 2 "" H 8700 850 50  0001 C CNN
F 3 "" H 8700 850 50  0001 C CNN
	1    8700 850 
	0    1    1    0   
$EndComp
$Comp
L gamerscomplete:ATMEGA809-MU U?
U 1 1 62389BC3
P 2150 5000
F 0 "U?" H 2125 5215 50  0000 C CNN
F 1 "ATMEGA809-MU" H 2125 5124 50  0000 C CNN
F 2 "" H 1950 3900 50  0001 C CNN
F 3 "" H 1950 3900 50  0001 C CNN
	1    2150 5000
	1    0    0    -1  
$EndComp
Wire Wire Line
	1600 6950 1600 7050
Wire Wire Line
	1600 7150 1600 7250
Wire Wire Line
	1600 7250 1600 7350
Connection ~ 1600 7250
Wire Wire Line
	1500 7350 1600 7350
Connection ~ 1600 7350
Wire Wire Line
	1600 7050 1500 7050
Connection ~ 1600 7050
Wire Wire Line
	2650 6350 2750 6350
Wire Wire Line
	2750 6450 2650 6450
Wire Wire Line
	2650 6550 2750 6550
Wire Wire Line
	1500 6450 1600 6450
Wire Wire Line
	1600 6550 1500 6550
Wire Wire Line
	2750 5750 2650 5750
Wire Wire Line
	2650 5650 2750 5650
Wire Wire Line
	2750 5350 2650 5350
Wire Wire Line
	2650 5250 2750 5250
Wire Wire Line
	2750 5450 2650 5450
Wire Wire Line
	2650 5550 2750 5550
$Comp
L Connector_Generic:Conn_01x02 J?
U 1 1 6245E216
P 3950 1200
F 0 "J?" H 4030 1192 50  0000 L CNN
F 1 "Vibrator connector 1" H 4030 1101 50  0000 L CNN
F 2 "" H 3950 1200 50  0001 C CNN
F 3 "~" H 3950 1200 50  0001 C CNN
	1    3950 1200
	1    0    0    -1  
$EndComp
$Comp
L Connector_Generic:Conn_01x02 J?
U 1 1 62466750
P 3950 950
F 0 "J?" H 4030 942 50  0000 L CNN
F 1 "Vibrator connector 2" H 4030 851 50  0000 L CNN
F 2 "" H 3950 950 50  0001 C CNN
F 3 "~" H 3950 950 50  0001 C CNN
	1    3950 950 
	1    0    0    -1  
$EndComp
$Comp
L Connector_Generic:Conn_01x02 J?
U 1 1 6246A07C
P 3950 1450
F 0 "J?" H 4030 1442 50  0000 L CNN
F 1 "Fan connector" H 4030 1351 50  0000 L CNN
F 2 "" H 3950 1450 50  0001 C CNN
F 3 "~" H 3950 1450 50  0001 C CNN
	1    3950 1450
	1    0    0    -1  
$EndComp
$EndSCHEMATC
